ProyectoFinal/phy-rx/prueba_phy_rx.vcd
$date
	Tue Oct 19 14:19:11 2021
$end
$version
	Icarus Verilog
$end
$timescale
	1ps
$end
$scope module BUF $end
$var wire 1 ! A $end
$var wire 1 " Y $end
$upscope $end
$scope module DFF $end
$var wire 1 # C $end
$var wire 1 $ D $end
$var reg 1 % Q $end
$upscope $end
$scope module DFFSR $end
$var wire 1 & C $end
$var wire 1 ' D $end
$var wire 1 ( R $end
$var wire 1 ) S $end
$var reg 1 * Q $end
$upscope $end
$scope module NAND $end
$var wire 1 + A $end
$var wire 1 , B $end
$var wire 1 - Y $end
$upscope $end
$scope module NOR $end
$var wire 1 . A $end
$var wire 1 / B $end
$var wire 1 0 Y $end
$upscope $end
$scope module NOT $end
$var wire 1 1 A $end
$var wire 1 2 Y $end
$upscope $end
$scope module testbench_phy_rx $end
$var wire 1 3 valid_out_e $end
$var wire 1 4 valid_out_c $end
$var wire 1 5 reset $end
$var wire 1 6 clk_4f $end
$var wire 1 7 clk_32f $end
$var wire 1 8 clk_2f $end
$var wire 32 9 Data_out_e [31:0] $end
$var wire 32 : Data_out_c [31:0] $end
$var wire 1 ; Data_in_1 $end
$var wire 1 < Data_in_0 $end
$scope module phy_rx_c1 $end
$var wire 1 = valid_out_1_c $end
$var wire 1 > valid_out_0_c $end
$var wire 1 ? valid_c $end
$var wire 1 @ valid_1_c $end
$var wire 1 A valid_0_c $end
$var wire 1 5 reset $end
$var wire 32 B lane_1_c [31:0] $end
$var wire 32 C lane_0_c [31:0] $end
$var wire 1 6 clk_4f_c $end
$var wire 1 7 clk_32f $end
$var wire 1 8 clk_2f_c $end
$var wire 8 D Data_out_1_c [7:0] $end
$var wire 8 E Data_out_0_c [7:0] $end
$var wire 1 ; Data_in_1 $end
$var wire 1 < Data_in_0 $end
$var wire 32 F Data_c [31:0] $end
$var reg 32 G Data_out_c [31:0] $end
$var reg 1 4 valid_out_c $end
$scope module bits8_32word_1 $end
$var wire 1 > valid_in $end
$var wire 1 5 reset $end
$var wire 1 6 clk_4f_c $end
$var wire 8 H Data_in [7:0] $end
$var reg 32 I Data_out_c [31:0] $end
$var reg 2 J contador [1:0] $end
$var reg 1 K down $end
$var reg 32 L memoria [31:0] $end
$var reg 1 M valid $end
$var reg 1 A valid_out_c $end
$upscope $end
$scope module bits8_32word_2 $end
$var wire 1 = valid_in $end
$var wire 1 5 reset $end
$var wire 1 6 clk_4f_c $end
$var wire 8 N Data_in [7:0] $end
$var reg 32 O Data_out_c [31:0] $end
$var reg 2 P contador [1:0] $end
$var reg 1 Q down $end
$var reg 32 R memoria [31:0] $end
$var reg 1 S valid $end
$var reg 1 @ valid_out_c $end
$upscope $end
$scope module byte_un_striping_1 $end
$var wire 32 T lane_0 [31:0] $end
$var wire 32 U lane_1 [31:0] $end
$var wire 1 A valid_0 $end
$var wire 1 @ valid_1 $end
$var wire 1 5 reset $end
$var wire 1 8 clk_2f_c $end
$var reg 32 V Data_out_c [31:0] $end
$var reg 1 W contador $end
$var reg 1 ? valid_out_c $end
$upscope $end
$scope module serial_parallel_1 $end
$var wire 1 5 reset $end
$var wire 1 7 clk_32f $end
$var wire 1 < Data_in $end
$var reg 2 X BC_count [1:0] $end
$var reg 8 Y Data_out_c [7:0] $end
$var reg 1 Z active $end
$var reg 3 [ contador [2:0] $end
$var reg 8 \ memoria [7:0] $end
$var reg 1 > valid_out_c $end
$upscope $end
$scope module serial_parallel_2 $end
$var wire 1 5 reset $end
$var wire 1 7 clk_32f $end
$var wire 1 ; Data_in $end
$var reg 2 ] BC_count [1:0] $end
$var reg 8 ^ Data_out_c [7:0] $end
$var reg 1 _ active $end
$var reg 3 ` contador [2:0] $end
$var reg 8 a memoria [7:0] $end
$var reg 1 = valid_out_c $end
$upscope $end
$upscope $end
$scope module phy_rx_e1 $end
$var wire 1 b valid_out_1_c $end
$var wire 1 c valid_out_0_c $end
$var wire 1 d valid_c $end
$var wire 1 e valid_1_c $end
$var wire 1 f valid_0_c $end
$var wire 1 5 reset $end
$var wire 32 g lane_1_c [31:0] $end
$var wire 32 h lane_0_c [31:0] $end
$var wire 1 6 clk_4f_e $end
$var wire 1 7 clk_32f $end
$var wire 1 8 clk_2f_e $end
$var wire 8 i Data_out_1_c [7:0] $end
$var wire 8 j Data_out_0_c [7:0] $end
$var wire 1 ; Data_in_1 $end
$var wire 1 < Data_in_0 $end
$var wire 32 k Data_c [31:0] $end
$var reg 32 l Data_out_e [31:0] $end
$var reg 32 m _0_ [31:0] $end
$var reg 1 n _1_ $end
$var reg 1 3 valid_out_e $end
$scope module bits8_32word_1 $end
$var wire 1 o _12_ $end
$var wire 1 c valid_in $end
$var wire 1 5 reset $end
$var wire 1 6 clk_4f_e $end
$var wire 8 p Data_in [7:0] $end
$var reg 32 q Data_out_e [31:0] $end
$var reg 32 r _00_ [31:0] $end
$var reg 2 s _01_ [1:0] $end
$var reg 1 t _02_ $end
$var reg 32 u _03_ [31:0] $end
$var reg 1 v _04_ $end
$var reg 1 w _05_ $end
$var reg 32 x _06_ [31:0] $end
$var reg 2 y _07_ [1:0] $end
$var reg 1 z _08_ $end
$var reg 32 { _09_ [31:0] $end
$var reg 1 | _10_ $end
$var reg 1 } _11_ $end
$var reg 2 ~ contador [1:0] $end
$var reg 1 !" down $end
$var reg 32 "" memoria [31:0] $end
$var reg 1 #" valid $end
$var reg 1 f valid_out_e $end
$upscope $end
$scope module bits8_32word_2 $end
$var wire 1 $" _12_ $end
$var wire 1 b valid_in $end
$var wire 1 5 reset $end
$var wire 1 6 clk_4f_e $end
$var wire 8 %" Data_in [7:0] $end
$var reg 32 &" Data_out_e [31:0] $end
$var reg 32 '" _00_ [31:0] $end
$var reg 2 (" _01_ [1:0] $end
$var reg 1 )" _02_ $end
$var reg 32 *" _03_ [31:0] $end
$var reg 1 +" _04_ $end
$var reg 1 ," _05_ $end
$var reg 32 -" _06_ [31:0] $end
$var reg 2 ." _07_ [1:0] $end
$var reg 1 /" _08_ $end
$var reg 32 0" _09_ [31:0] $end
$var reg 1 1" _10_ $end
$var reg 1 2" _11_ $end
$var reg 2 3" contador [1:0] $end
$var reg 1 4" down $end
$var reg 32 5" memoria [31:0] $end
$var reg 1 6" valid $end
$var reg 1 e valid_out_e $end
$upscope $end
$scope module byte_un_striping_1 $end
$var wire 1 7" _6_ $end
$var wire 32 8" lane_0 [31:0] $end
$var wire 32 9" lane_1 [31:0] $end
$var wire 1 f valid_0 $end
$var wire 1 e valid_1 $end
$var wire 1 5 reset $end
$var wire 1 8 clk_2f_e $end
$var reg 32 :" Data_out_e [31:0] $end
$var reg 32 ;" _0_ [31:0] $end
$var reg 1 <" _1_ $end
$var reg 1 =" _2_ $end
$var reg 32 >" _3_ [31:0] $end
$var reg 1 ?" _4_ $end
$var reg 1 @" _5_ $end
$var reg 1 A" contador $end
$var reg 1 d valid_out_e $end
$upscope $end
$scope module serial_parallel_1 $end
$var wire 1 B" _16_ $end
$var wire 1 C" _17_ $end
$var wire 1 D" _18_ $end
$var wire 1 E" _19_ $end
$var wire 1 5 reset $end
$var wire 1 7 clk_32f $end
$var wire 8 F" _15_ [7:0] $end
$var wire 2 G" _13_ [1:0] $end
$var wire 4 H" _12_ [3:0] $end
$var wire 1 < Data_in $end
$var reg 2 I" BC_count [1:0] $end
$var reg 8 J" Data_out_e [7:0] $end
$var reg 2 K" _00_ [1:0] $end
$var reg 8 L" _01_ [7:0] $end
$var reg 1 M" _02_ $end
$var reg 3 N" _03_ [2:0] $end
$var reg 8 O" _04_ [7:0] $end
$var reg 1 P" _05_ $end
$var reg 2 Q" _06_ [1:0] $end
$var reg 8 R" _07_ [7:0] $end
$var reg 1 S" _08_ $end
$var reg 3 T" _09_ [2:0] $end
$var reg 8 U" _10_ [7:0] $end
$var reg 1 V" _11_ $end
$var reg 1 W" active $end
$var reg 3 X" contador [2:0] $end
$var reg 8 Y" memoria [7:0] $end
$var reg 1 c valid_out_e $end
$upscope $end
$scope module serial_parallel_2 $end
$var wire 1 Z" _16_ $end
$var wire 1 [" _17_ $end
$var wire 1 \" _18_ $end
$var wire 1 ]" _19_ $end
$var wire 1 5 reset $end
$var wire 1 7 clk_32f $end
$var wire 8 ^" _15_ [7:0] $end
$var wire 2 _" _13_ [1:0] $end
$var wire 4 `" _12_ [3:0] $end
$var wire 1 ; Data_in $end
$var reg 2 a" BC_count [1:0] $end
$var reg 8 b" Data_out_e [7:0] $end
$var reg 2 c" _00_ [1:0] $end
$var reg 8 d" _01_ [7:0] $end
$var reg 1 e" _02_ $end
$var reg 3 f" _03_ [2:0] $end
$var reg 8 g" _04_ [7:0] $end
$var reg 1 h" _05_ $end
$var reg 2 i" _06_ [1:0] $end
$var reg 8 j" _07_ [7:0] $end
$var reg 1 k" _08_ $end
$var reg 3 l" _09_ [2:0] $end
$var reg 8 m" _10_ [7:0] $end
$var reg 1 n" _11_ $end
$var reg 1 o" active $end
$var reg 3 p" contador [2:0] $end
$var reg 8 q" memoria [7:0] $end
$var reg 1 b valid_out_e $end
$upscope $end
$upscope $end
$scope module probador_phy_rx1 $end
$var wire 32 r" Data_out_c [31:0] $end
$var wire 32 s" Data_out_e [31:0] $end
$var wire 1 4 valid_out_c $end
$var wire 1 3 valid_out_e $end
$var reg 1 < Data_in_0 $end
$var reg 1 ; Data_in_1 $end
$var reg 2 t" checker [1:0] $end
$var reg 1 8 clk_2f $end
$var reg 1 7 clk_32f $end
$var reg 1 6 clk_4f $end
$var reg 3 u" conteo_2 [2:0] $end
$var reg 2 v" conteo_4 [1:0] $end
$var reg 1 5 reset $end
$upscope $end
$upscope $end
$enddefinitions $end
#0
$dumpvars
b11 v"
b111 u"
b11 t"
b0 s"
b0 r"
b0 q"
b111 p"
0o"
0n"
b0 m"
b0 l"
0k"
b0 j"
b0 i"
0h"
b0 g"
b111 f"
0e"
b0 d"
b0 c"
b0 b"
b0 a"
b1110 `"
b11 _"
b10111100 ^"
0]"
0\"
1["
1Z"
b0 Y"
b111 X"
0W"
0V"
b0 U"
b0 T"
0S"
b0 R"
b0 Q"
0P"
b0 O"
b111 N"
0M"
b0 L"
b0 K"
b0 J"
b0 I"
b1110 H"
b11 G"
b10111100 F"
0E"
0D"
1C"
1B"
1A"
0@"
0?"
b0 >"
0="
1<"
b0 ;"
b0 :"
b0 9"
b0 8"
17"
06"
b0 5"
04"
b11 3"
02"
01"
b0 0"
1/"
b0 ."
b0 -"
0,"
0+"
b0 *"
0)"
b11 ("
b0 '"
b0 &"
b0 %"
1$"
0#"
b0 ""
0!"
b11 ~
0}
0|
b0 {
1z
b0 y
b0 x
0w
0v
b0 u
0t
b11 s
b0 r
b0 q
b0 p
1o
0n
b0 m
b0 l
b0 k
b0 j
b0 i
b0 h
b0 g
0f
0e
0d
0c
0b
b0 a
b111 `
0_
b0 ^
b0 ]
b0 \
b111 [
0Z
b0 Y
b0 X
1W
b0 V
b0 U
b0 T
0S
b0 R
0Q
b11 P
b0 O
b0 N
0M
b0 L
0K
b11 J
b0 I
b0 H
b0 G
b0 F
b0 E
b0 D
b0 C
b0 B
0A
0@
0?
0>
0=
0<
0;
b0 :
b0 9
08
07
06
05
04
03
z2
z1
x0
z/
z.
x-
z,
z+
x*
z)
z(
z'
z&
x%
z$
z#
z"
z!
$end
#1000
1?"
0<"
1t
b0 s
1)"
b0 ("
0W
0A"
1K
b0 J
1Q
b0 P
1!"
b0 ~
14"
b0 3"
0["
0C"
07"
0$"
0o
b10000000 U"
b1 T"
b0 N"
b10000000 m"
b1 l"
b0 f"
18
b0 u"
16
b0 v"
1;
1<
15
b0 [
b0 `
b0 X"
b0 p"
17
#2000
07
#3000
b110 `"
b110 H"
b111100 ^"
b111100 F"
b10000000 g"
b1 f"
b10000000 O"
b1 N"
b10 l"
b10 T"
b10000000 q"
b1 p"
b10000000 Y"
b1 X"
b10000000 a
b1 `
b10000000 \
b1 [
0;
0<
b1 u"
b1 v"
17
#4000
07
#5000
b10100000 U"
b11 T"
b10 N"
b10100000 m"
b11 l"
b10 f"
b10 u"
b10 v"
1;
1<
b10 [
b10 `
b10 X"
b10 p"
17
#6000
07
#7000
b11100 ^"
b11100 F"
b10110000 m"
b100 l"
b10100000 g"
b11 f"
b10110000 U"
b100 T"
b10100000 O"
b11 N"
b10100000 q"
b11 p"
b10100000 Y"
b11 X"
b10100000 a
b11 `
b10100000 \
b11 [
b11 u"
b11 v"
17
#8000
07
#9000
b1 G"
b1 _"
b10 H"
b10 `"
b1100 F"
b1100 ^"
b10111000 U"
b101 T"
b10110000 O"
b100 N"
b10111000 m"
b101 l"
b10110000 g"
b100 f"
b100 u"
06
b0 v"
b10110000 \
b100 [
b10110000 a
b100 `
b10110000 Y"
b100 X"
b10110000 q"
b100 p"
17
#10000
07
#11000
b100 ^"
b100 F"
b10111100 m"
b110 l"
b10111000 g"
b101 f"
b10111100 U"
b110 T"
b10111000 O"
b101 N"
b10111000 q"
b101 p"
b10111000 Y"
b101 X"
b10111000 a
b101 `
b10111000 \
b101 [
b101 u"
b1 v"
17
#12000
07
#13000
1D"
1E"
1\"
1]"
0B"
0Z"
b0 G"
b0 _"
b0 H"
b0 `"
b0 F"
b0 ^"
b111 T"
b10111100 O"
b110 N"
b111 l"
b10111100 g"
b110 f"
b110 u"
b10 v"
0;
0<
b10111100 \
b110 [
b10111100 a
b110 `
b10111100 Y"
b110 X"
b10111100 q"
b110 p"
17
#14000
07
#15000
b0 l"
b111 f"
b0 T"
b111 N"
b111 p"
b111 X"
b111 `
b111 [
b111 u"
b11 v"
17
#16000
07
#17000
b1 Q"
b10000000 U"
b1 T"
b0 N"
b1 i"
b10000000 m"
b1 l"
b0 f"
08
b0 u"
16
b0 v"
1;
1<
b0 [
b0 `
b0 X"
b0 p"
17
#18000
07
#19000
0\"
0]"
0D"
0E"
1Z"
1B"
b11 _"
b11 G"
b110 `"
b110 H"
b111100 ^"
b111100 F"
b1 c"
b10000000 g"
b1 f"
b1 K"
b10000000 O"
b1 N"
b10 l"
b10 T"
b1 a"
b10000000 q"
b1 p"
b1 I"
b10000000 Y"
b1 X"
b10000000 a
b1 `
b1 ]
b10000000 \
b1 [
b1 X
0;
0<
b1 u"
b1 v"
17
#20000
07
#21000
b10100000 U"
b11 T"
b10 N"
b10100000 m"
b11 l"
b10 f"
b10 u"
b10 v"
1;
1<
b10 [
b10 `
b10 X"
b10 p"
17
#22000
07
#23000
b11100 ^"
b11100 F"
b10110000 m"
b100 l"
b10100000 g"
b11 f"
b10110000 U"
b100 T"
b10100000 O"
b11 N"
b10100000 q"
b11 p"
b10100000 Y"
b11 X"
b10100000 a
b11 `
b10100000 \
b11 [
b11 u"
b11 v"
17
#24000
07
#25000
b1 G"
b1 _"
b10 H"
b10 `"
b1100 F"
b1100 ^"
b10111000 U"
b101 T"
b10110000 O"
b100 N"
b10111000 m"
b101 l"
b10110000 g"
b100 f"
b100 u"
06
b0 v"
b10110000 \
b100 [
b10110000 a
b100 `
b10110000 Y"
b100 X"
b10110000 q"
b100 p"
17
#26000
07
#27000
b100 ^"
b100 F"
b10111100 m"
b110 l"
b10111000 g"
b101 f"
b10111100 U"
b110 T"
b10111000 O"
b101 N"
b10111000 q"
b101 p"
b10111000 Y"
b101 X"
b10111000 a
b101 `
b10111000 \
b101 [
b101 u"
b1 v"
17
#28000
07
#29000
1D"
1E"
1\"
1]"
0B"
0Z"
b0 G"
b0 _"
b0 H"
b0 `"
b0 F"
b0 ^"
b111 T"
b10111100 O"
b110 N"
b111 l"
b10111100 g"
b110 f"
b110 u"
b10 v"
0;
0<
b10111100 \
b110 [
b10111100 a
b110 `
b10111100 Y"
b110 X"
b10111100 q"
b110 p"
17
#30000
07
#31000
b0 l"
b111 f"
b0 T"
b111 N"
b111 p"
b111 X"
b111 `
b111 [
b111 u"
b11 v"
17
#32000
07
#33000
0?"
1<"
1A"
1W
b10 Q"
b10000000 U"
b1 T"
b0 N"
b10 i"
b10000000 m"
b1 l"
b0 f"
18
b0 u"
16
b0 v"
1;
1<
b0 [
b0 `
b0 X"
b0 p"
17
#34000
07
#35000
0\"
0]"
0D"
0E"
1Z"
1B"
b11 _"
b11 G"
b110 `"
b110 H"
b111100 ^"
b111100 F"
b10 c"
b10000000 g"
b1 f"
b10 K"
b10000000 O"
b1 N"
b10 l"
b10 T"
b10 a"
b10000000 q"
b1 p"
b10 I"
b10000000 Y"
b1 X"
b10000000 a
b1 `
b10 ]
b10000000 \
b1 [
b10 X
0;
0<
b1 u"
b1 v"
17
#36000
07
#37000
b10100000 U"
b11 T"
b10 N"
b10100000 m"
b11 l"
b10 f"
b10 u"
b10 v"
1;
1<
b10 [
b10 `
b10 X"
b10 p"
17
#38000
07
#39000
b11100 ^"
b11100 F"
b10110000 m"
b100 l"
b10100000 g"
b11 f"
b10110000 U"
b100 T"
b10100000 O"
b11 N"
b10100000 q"
b11 p"
b10100000 Y"
b11 X"
b10100000 a
b11 `
b10100000 \
b11 [
b11 u"
b11 v"
17
#40000
07
#41000
b1 G"
b1 _"
b10 H"
b10 `"
b1100 F"
b1100 ^"
b10111000 U"
b101 T"
b10110000 O"
b100 N"
b10111000 m"
b101 l"
b10110000 g"
b100 f"
b100 u"
06
b0 v"
b10110000 \
b100 [
b10110000 a
b100 `
b10110000 Y"
b100 X"
b10110000 q"
b100 p"
17
#42000
07
#43000
b100 ^"
b100 F"
b10111100 m"
b110 l"
b10111000 g"
b101 f"
b10111100 U"
b110 T"
b10111000 O"
b101 N"
b10111000 q"
b101 p"
b10111000 Y"
b101 X"
b10111000 a
b101 `
b10111000 \
b101 [
b101 u"
b1 v"
17
#44000
07
#45000
1D"
1E"
1\"
1]"
0B"
0Z"
b0 G"
b0 _"
b0 H"
b0 `"
b0 F"
b0 ^"
b111 T"
b10111100 O"
b110 N"
b111 l"
b10111100 g"
b110 f"
b110 u"
b10 v"
0;
0<
b10111100 \
b110 [
b10111100 a
b110 `
b10111100 Y"
b110 X"
b10111100 q"
b110 p"
17
#46000
07
#47000
b0 l"
b111 f"
b0 T"
b111 N"
b111 p"
b111 X"
b111 `
b111 [
b111 u"
b11 v"
17
#48000
07
#49000
b11 Q"
b10000000 U"
b1 T"
b0 N"
b11 i"
b10000000 m"
b1 l"
b0 f"
08
b0 u"
16
b0 v"
1;
1<
b0 [
b0 `
b0 X"
b0 p"
17
#50000
07
#51000
0\"
0]"
0D"
0E"
1Z"
1B"
b11 _"
b11 G"
b110 `"
b110 H"
b111100 ^"
b111100 F"
b11 c"
b10000000 g"
b1 f"
b11 K"
b10000000 O"
b1 N"
b10 l"
b10 T"
b11 a"
b10000000 q"
b1 p"
b11 I"
b10000000 Y"
b1 X"
b10000000 a
b1 `
b11 ]
b10000000 \
b1 [
b11 X
0;
0<
b1 u"
b1 v"
17
#52000
07
#53000
b10100000 U"
b11 T"
b10 N"
b10100000 m"
b11 l"
b10 f"
b10 u"
b10 v"
1;
1<
b10 [
b10 `
b10 X"
b10 p"
17
#54000
07
#55000
b11100 ^"
b11100 F"
b10110000 m"
b100 l"
b10100000 g"
b11 f"
b10110000 U"
b100 T"
b10100000 O"
b11 N"
b10100000 q"
b11 p"
b10100000 Y"
b11 X"
b10100000 a
b11 `
b10100000 \
b11 [
b11 u"
b11 v"
17
#56000
07
#57000
b1 G"
b1 _"
b10 H"
b10 `"
b1100 F"
b1100 ^"
b10111000 U"
b101 T"
b10110000 O"
b100 N"
b10111000 m"
b101 l"
b10110000 g"
b100 f"
b100 u"
06
b0 v"
b10110000 \
b100 [
b10110000 a
b100 `
b10110000 Y"
b100 X"
b10110000 q"
b100 p"
17
#58000
07
#59000
b100 ^"
b100 F"
b10111100 m"
b110 l"
b10111000 g"
b101 f"
b10111100 U"
b110 T"
b10111000 O"
b101 N"
b10111000 q"
b101 p"
b10111000 Y"
b101 X"
b10111000 a
b101 `
b10111000 \
b101 [
b101 u"
b1 v"
17
#60000
07
#61000
1D"
1E"
1\"
1]"
0B"
0Z"
b0 G"
b0 _"
b0 H"
b0 `"
b0 F"
b0 ^"
b111 T"
b10111100 O"
b110 N"
b111 l"
b10111100 g"
b110 f"
b110 u"
b10 v"
0;
0<
b10111100 \
b110 [
b10111100 a
b110 `
b10111100 Y"
b110 X"
b10111100 q"
b110 p"
17
#62000
07
#63000
b0 l"
b111 f"
b0 T"
b111 N"
b111 p"
b111 X"
b111 `
b111 [
b111 u"
b11 v"
17
#64000
07
#65000
1?"
0<"
0W
0A"
1S"
b10000000 U"
b1 T"
b0 N"
1k"
b10000000 m"
b1 l"
b0 f"
18
b0 u"
16
b0 v"
1;
1<
b0 [
b0 `
b0 X"
b0 p"
17
#66000
07
#67000
0\"
0]"
0D"
0E"
1Z"
1B"
b11 _"
b11 G"
b110 `"
b110 H"
b111100 ^"
b111100 F"
1e"
b10000000 g"
b1 f"
b11000000 U"
b10 T"
1M"
b10000000 O"
b1 N"
b10 l"
1o"
b10000000 q"
b1 p"
1W"
b10000000 Y"
b1 X"
b10000000 a
b1 `
1_
b10000000 \
b1 [
1Z
0;
b1 u"
b1 v"
17
#68000
07
#69000
b1110 H"
b1111100 F"
b11100000 U"
b11 T"
b11000000 O"
b10 N"
b10100000 m"
b11 l"
b10 f"
b10 u"
b10 v"
1;
b11000000 \
b10 [
b10 `
b11000000 Y"
b10 X"
b10 p"
17
#70000
07
#71000
b11100 ^"
b1011100 F"
b10110000 m"
b100 l"
b10100000 g"
b11 f"
b11110000 U"
b100 T"
b11100000 O"
b11 N"
b10100000 q"
b11 p"
b11100000 Y"
b11 X"
b10100000 a
b11 `
b11100000 \
b11 [
b11 u"
b11 v"
17
#72000
07
#73000
b1 _"
b1010 H"
b10 `"
b1001100 F"
b1100 ^"
b11111000 U"
b101 T"
b11110000 O"
b100 N"
b10111000 m"
b101 l"
b10110000 g"
b100 f"
b100 u"
06
b0 v"
b11110000 \
b100 [
b10110000 a
b100 `
b11110000 Y"
b100 X"
b10110000 q"
b100 p"
17
#74000
07
#75000
b100 ^"
b1000100 F"
b10111100 m"
b110 l"
b10111000 g"
b101 f"
b11111100 U"
b110 T"
b11111000 O"
b101 N"
b10111000 q"
b101 p"
b11111000 Y"
b101 X"
b10111000 a
b101 `
b11111000 \
b101 [
b101 u"
b1 v"
17
#76000
07
#77000
1\"
1]"
0Z"
b10 G"
b0 _"
b1000 H"
b0 `"
b1000000 F"
b0 ^"
b11111110 U"
b111 T"
b11111100 O"
b110 N"
b111 l"
b10111100 g"
b110 f"
b110 u"
b10 v"
0;
b11111100 \
b110 [
b10111100 a
b110 `
b11111100 Y"
b110 X"
b10111100 q"
b110 p"
17
#78000
07
#79000
b11 G"
b1001 H"
b0 l"
b111 f"
b1000010 F"
b11111111 U"
b0 T"
b11111110 O"
b111 N"
b111 p"
b11111110 Y"
b111 X"
b111 `
b11111110 \
b111 [
b111 u"
b11 v"
17
#80000
07
#81000
b1000011 F"
b11111111 R"
1V"
b10000000 U"
b1 T"
b11111111 O"
b0 N"
b10000000 m"
b1 l"
b0 f"
08
b0 u"
16
b0 v"
1;
b11111111 \
b0 [
b0 `
b11111111 Y"
b0 X"
b0 p"
17
#82000
07
#83000
0\"
0]"
1Z"
0D"
0E"
1B"
b11 _"
b11 G"
b110 `"
b110 H"
b111100 ^"
b10000000 g"
b1 f"
b111100 F"
b1 y
b11111111000000000000000000000000 {
b11000000 U"
b10 T"
b10000000 O"
b1 N"
b11111111 L"
1P"
b10 l"
b10000000 q"
b1 p"
b10000000 Y"
b1 X"
b11111111 j
b11111111 p
b11111111 J"
1c
b10000000 a
b1 `
b10000000 \
b1 [
b11111111 E
b11111111 H
b11111111 Y
1>
0;
b1 u"
b1 v"
17
#84000
07
#85000
b1110 H"
b1111100 F"
b11100000 U"
b11 T"
b11000000 O"
b10 N"
b10100000 m"
b11 l"
b10 f"
b10 u"
b10 v"
1;
b11000000 \
b10 [
b10 `
b11000000 Y"
b10 X"
b10 p"
17
#86000
07
#87000
b11100 ^"
b1011100 F"
b10110000 m"
b100 l"
b10100000 g"
b11 f"
b11110000 U"
b100 T"
b11100000 O"
b11 N"
b10100000 q"
b11 p"
b11100000 Y"
b11 X"
b10100000 a
b11 `
b11100000 \
b11 [
b11 u"
b11 v"
17
#88000
07
#89000
b1 _"
b1010 H"
b10 `"
b1001100 F"
b1100 ^"
b11111000 U"
b101 T"
b11110000 O"
b100 N"
b10111000 m"
b101 l"
b10110000 g"
b100 f"
b100 u"
06
b0 v"
b11110000 \
b100 [
b10110000 a
b100 `
b11110000 Y"
b100 X"
b10110000 q"
b100 p"
17
#90000
07
#91000
b100 ^"
b1000100 F"
b10111100 m"
b110 l"
b10111000 g"
b101 f"
b11111100 U"
b110 T"
b11111000 O"
b101 N"
b10111000 q"
b101 p"
b11111000 Y"
b101 X"
b10111000 a
b101 `
b11111000 \
b101 [
b101 u"
b1 v"
17
#92000
07
#93000
1\"
1]"
0Z"
b10 G"
b0 _"
b1000 H"
b0 `"
b1000000 F"
b0 ^"
b11111110 U"
b111 T"
b11111100 O"
b110 N"
b111 l"
b10111100 g"
b110 f"
b110 u"
b10 v"
0;
b11111100 \
b110 [
b10111100 a
b110 `
b11111100 Y"
b110 X"
b10111100 q"
b110 p"
17
#94000
07
#95000
b11 G"
b1001 H"
b0 l"
b111 f"
b1000010 F"
b11111111 U"
b0 T"
b11111110 O"
b111 N"
b111 p"
b11111110 Y"
b111 X"
b111 `
b11111110 \
b111 [
b111 u"
b11 v"
17
#96000
07
#97000
0?"
1<"
b10 y
b11111111111111110000000000000000 {
b11111111000000000000000000000000 u
b1 s
1A"
1W
b1 J
b11111111000000000000000000000000 L
b11111111000000000000000000000000 ""
b1 ~
b1000011 F"
b10000000 U"
b1 T"
b11111111 O"
b0 N"
b10000000 m"
b1 l"
b0 f"
18
b0 u"
16
b0 v"
1;
b11111111 \
b0 [
b0 `
b11111111 Y"
b0 X"
b0 p"
17
#98000
07
#99000
0\"
0]"
1Z"
0D"
0E"
1B"
b11 _"
b11 G"
b110 `"
b110 H"
b111100 ^"
b11000000 m"
b10 l"
b10000000 g"
b1 f"
b111100 F"
b11000000 U"
b10 T"
b10000000 O"
b1 N"
b10000000 q"
b1 p"
b10000000 Y"
b1 X"
b10000000 a
b1 `
b10000000 \
b1 [
b1 u"
b1 v"
17
#100000
07
#101000
b1110 H"
b1110 `"
b1111100 F"
b11100000 U"
b11 T"
b11000000 O"
b10 N"
b1111100 ^"
b11100000 m"
b11 l"
b11000000 g"
b10 f"
b10 u"
b10 v"
b11000000 \
b10 [
b11000000 a
b10 `
b11000000 Y"
b10 X"
b11000000 q"
b10 p"
17
#102000
07
#103000
b1011100 ^"
b1011100 F"
b11100000 g"
b11 f"
b11110000 U"
b100 T"
b11100000 O"
b11 N"
b100 l"
b11100000 q"
b11 p"
b11100000 Y"
b11 X"
b11100000 a
b11 `
b11100000 \
b11 [
0;
b11 u"
b11 v"
17
#104000
07
#105000
b1010 H"
b1001100 F"
b11111000 U"
b101 T"
b11110000 O"
b100 N"
b11101000 m"
b101 l"
b100 f"
b100 u"
06
b0 v"
1;
b11110000 \
b100 [
b100 `
b11110000 Y"
b100 X"
b100 p"
17
#106000
07
#107000
b1010100 ^"
b1000100 F"
b11101100 m"
b110 l"
b11101000 g"
b101 f"
b11111100 U"
b110 T"
b11111000 O"
b101 N"
b11101000 q"
b101 p"
b11111000 Y"
b101 X"
b11101000 a
b101 `
b11111000 \
b101 [
b101 u"
b1 v"
17
#108000
07
#109000
b10 G"
b10 _"
b1000 H"
b1100 `"
b1000000 F"
b1010000 ^"
b11111110 U"
b111 T"
b11111100 O"
b110 N"
b11101110 m"
b111 l"
b11101100 g"
b110 f"
b110 u"
b10 v"
b11111100 \
b110 [
b11101100 a
b110 `
b11111100 Y"
b110 X"
b11101100 q"
b110 p"
17
#110000
07
#111000
b11 _"
b11 G"
b1101 `"
b1001 H"
b1010010 ^"
b11101110 g"
b111 f"
b1000010 F"
b11111111 U"
b0 T"
b11111110 O"
b111 N"
b0 l"
b11101110 q"
b111 p"
b11111110 Y"
b111 X"
b11101110 a
b111 `
b11111110 \
b111 [
0;
b111 u"
b11 v"
17
#112000
07
#113000
b11 y
b11111111111111111111111100000000 {
b11111111111111110000000000000000 u
b10 s
b11111111111111110000000000000000 ""
b10 ~
b10 J
b11111111111111110000000000000000 L
b1000011 F"
b10000000 U"
b1 T"
b11111111 O"
b0 N"
b11101110 j"
1n"
b10000000 m"
b1 l"
b0 f"
08
b0 u"
16
b0 v"
1;
b11111111 \
b0 [
b0 `
b11111111 Y"
b0 X"
b0 p"
17
#114000
07
#115000
0D"
0E"
1B"
b11 _"
b11 G"
b110 `"
b110 H"
b111100 ^"
b1 ."
b11101110000000000000000000000000 0"
b11000000 m"
b10 l"
b10000000 g"
b1 f"
b11101110 d"
1h"
b111100 F"
b11000000 U"
b10 T"
b10000000 O"
b1 N"
b10000000 q"
b1 p"
b11101110 i
b11101110 %"
b11101110 b"
1b
b10000000 Y"
b1 X"
b10000000 a
b1 `
b11101110 D
b11101110 N
b11101110 ^
1=
b10000000 \
b1 [
b1 u"
b1 v"
17
#116000
07
#117000
b1110 H"
b1110 `"
b1111100 F"
b11100000 U"
b11 T"
b11000000 O"
b10 N"
b1111100 ^"
b11100000 m"
b11 l"
b11000000 g"
b10 f"
b10 u"
b10 v"
b11000000 \
b10 [
b11000000 a
b10 `
b11000000 Y"
b10 X"
b11000000 q"
b10 p"
17
#118000
07
#119000
b1011100 ^"
b1011100 F"
b11100000 g"
b11 f"
b11110000 U"
b100 T"
b11100000 O"
b11 N"
b100 l"
b11100000 q"
b11 p"
b11100000 Y"
b11 X"
b11100000 a
b11 `
b11100000 \
b11 [
0;
b11 u"
b11 v"
17
#120000
07
