ProyectoFinal/phy-tx/prueba_phy_tx.vcd
$date
	Tue Oct 19 14:57:22 2021
$end
$version
	Icarus Verilog
$end
$timescale
	1ps
$end
$scope module BUF $end
$var wire 1 ! A $end
$var wire 1 " Y $end
$upscope $end
$scope module DFF $end
$var wire 1 # C $end
$var wire 1 $ D $end
$var reg 1 % Q $end
$upscope $end
$scope module DFFSR $end
$var wire 1 & C $end
$var wire 1 ' D $end
$var wire 1 ( R $end
$var wire 1 ) S $end
$var reg 1 * Q $end
$upscope $end
$scope module NAND $end
$var wire 1 + A $end
$var wire 1 , B $end
$var wire 1 - Y $end
$upscope $end
$scope module NOR $end
$var wire 1 . A $end
$var wire 1 / B $end
$var wire 1 0 Y $end
$upscope $end
$scope module NOT $end
$var wire 1 1 A $end
$var wire 1 2 Y $end
$upscope $end
$scope module testbench_phy_tx $end
$var wire 1 3 valid_in $end
$var wire 1 4 reset $end
$var wire 1 5 clk_4f $end
$var wire 1 6 clk_32f $end
$var wire 1 7 clk_2f $end
$var wire 1 8 Data_out_1bit_1_e $end
$var wire 1 9 Data_out_1bit_1_c $end
$var wire 1 : Data_out_1bit_0_e $end
$var wire 1 ; Data_out_1bit_0_c $end
$var wire 32 < Data_in [31:0] $end
$scope module phy_tx_c1 $end
$var wire 1 = valid_out_1_c $end
$var wire 1 > valid_out_0_c $end
$var wire 1 3 valid_in $end
$var wire 1 ? valid_1_c $end
$var wire 1 @ valid_0_c $end
$var wire 1 4 reset $end
$var wire 32 A lane_1_c [31:0] $end
$var wire 32 B lane_0_c [31:0] $end
$var wire 1 5 clk_4f_c $end
$var wire 1 6 clk_32f $end
$var wire 1 7 clk_2f_c $end
$var wire 1 C Out_1_c $end
$var wire 1 D Out_0_c $end
$var wire 8 E Data_out_1_c [7:0] $end
$var wire 8 F Data_out_0_c [7:0] $end
$var wire 32 G Data_in [31:0] $end
$var reg 1 ; Data_out_1bit_0_c $end
$var reg 1 9 Data_out_1bit_1_c $end
$scope module byte_striping_1 $end
$var wire 1 3 valid_in $end
$var wire 1 4 reset $end
$var wire 1 7 clk_2f_c $end
$var wire 32 H Data_in [31:0] $end
$var reg 1 I contador $end
$var reg 32 J lane_0_c [31:0] $end
$var reg 32 K lane_1_c [31:0] $end
$var reg 1 @ valid_0_c $end
$var reg 1 ? valid_1_c $end
$upscope $end
$scope module parallel_serial_c1 $end
$var wire 1 > valid_in $end
$var wire 1 4 reset $end
$var wire 1 6 clk_32f $end
$var wire 8 L Data_in [7:0] $end
$var reg 1 D Data_out_c $end
$var reg 3 M contador [2:0] $end
$var reg 8 N data2send [7:0] $end
$upscope $end
$scope module parallel_serial_c2 $end
$var wire 1 = valid_in $end
$var wire 1 4 reset $end
$var wire 1 6 clk_32f $end
$var wire 8 O Data_in [7:0] $end
$var reg 1 C Data_out_c $end
$var reg 3 P contador [2:0] $end
$var reg 8 Q data2send [7:0] $end
$upscope $end
$scope module word32_8bits_1 $end
$var wire 32 R Data_in [31:0] $end
$var wire 1 @ valid_in $end
$var wire 1 4 reset $end
$var wire 1 5 clk_4f_c $end
$var reg 8 S Data_out_c [7:0] $end
$var reg 2 T contador [1:0] $end
$var reg 1 > valid_out_c $end
$upscope $end
$scope module word32_8bits_2 $end
$var wire 32 U Data_in [31:0] $end
$var wire 1 ? valid_in $end
$var wire 1 4 reset $end
$var wire 1 5 clk_4f_c $end
$var reg 8 V Data_out_c [7:0] $end
$var reg 2 W contador [1:0] $end
$var reg 1 = valid_out_c $end
$upscope $end
$upscope $end
$scope module phy_tx_e1 $end
$var wire 1 X valid_out_1_c $end
$var wire 1 Y valid_out_0_c $end
$var wire 1 3 valid_in $end
$var wire 1 Z valid_1_c $end
$var wire 1 [ valid_0_c $end
$var wire 1 4 reset $end
$var wire 32 \ lane_1_c [31:0] $end
$var wire 32 ] lane_0_c [31:0] $end
$var wire 1 5 clk_4f_e $end
$var wire 1 6 clk_32f $end
$var wire 1 7 clk_2f_e $end
$var wire 1 ^ Out_1_c $end
$var wire 1 _ Out_0_c $end
$var wire 8 ` Data_out_1_c [7:0] $end
$var wire 8 a Data_out_0_c [7:0] $end
$var wire 32 b Data_in [31:0] $end
$var reg 1 : Data_out_1bit_0_e $end
$var reg 1 8 Data_out_1bit_1_e $end
$var reg 1 c _0_ $end
$var reg 1 d _1_ $end
$scope module byte_striping_1 $end
$var wire 1 e _10_ $end
$var wire 1 f _11_ $end
$var wire 1 3 valid_in $end
$var wire 1 4 reset $end
$var wire 1 7 clk_2f_e $end
$var wire 32 g Data_in [31:0] $end
$var reg 1 h _00_ $end
$var reg 32 i _01_ [31:0] $end
$var reg 32 j _02_ [31:0] $end
$var reg 1 k _03_ $end
$var reg 1 l _04_ $end
$var reg 1 m _05_ $end
$var reg 32 n _06_ [31:0] $end
$var reg 32 o _07_ [31:0] $end
$var reg 1 p _08_ $end
$var reg 1 q _09_ $end
$var reg 1 r contador $end
$var reg 32 s lane_0_c [31:0] $end
$var reg 32 t lane_1_c [31:0] $end
$var reg 1 [ valid_0_c $end
$var reg 1 Z valid_1_c $end
$upscope $end
$scope module parallel_serial_e1 $end
$var wire 1 u _6_ $end
$var wire 1 Y valid_in $end
$var wire 1 4 reset $end
$var wire 1 6 clk_32f $end
$var wire 8 v Data_in [7:0] $end
$var reg 1 _ Data_out_c $end
$var reg 1 w _0_ $end
$var reg 3 x _1_ [2:0] $end
$var reg 8 y _2_ [7:0] $end
$var reg 1 z _3_ $end
$var reg 3 { _4_ [2:0] $end
$var reg 8 | _5_ [7:0] $end
$var reg 3 } contador [2:0] $end
$var reg 8 ~ data2send [7:0] $end
$upscope $end
$scope module parallel_serial_e2 $end
$var wire 1 !" _6_ $end
$var wire 1 X valid_in $end
$var wire 1 4 reset $end
$var wire 1 6 clk_32f $end
$var wire 8 "" Data_in [7:0] $end
$var reg 1 ^ Data_out_c $end
$var reg 1 #" _0_ $end
$var reg 3 $" _1_ [2:0] $end
$var reg 8 %" _2_ [7:0] $end
$var reg 1 &" _3_ $end
$var reg 3 '" _4_ [2:0] $end
$var reg 8 (" _5_ [7:0] $end
$var reg 3 )" contador [2:0] $end
$var reg 8 *" data2send [7:0] $end
$upscope $end
$scope module word32_8bits_1 $end
$var wire 32 +" Data_in [31:0] $end
$var wire 1 ," _6_ $end
$var wire 1 [ valid_in $end
$var wire 1 4 reset $end
$var wire 1 5 clk_4f_e $end
$var reg 8 -" Data_out_c [7:0] $end
$var reg 8 ." _0_ [7:0] $end
$var reg 2 /" _1_ [1:0] $end
$var reg 1 0" _2_ $end
$var reg 8 1" _3_ [7:0] $end
$var reg 2 2" _4_ [1:0] $end
$var reg 1 3" _5_ $end
$var reg 2 4" contador [1:0] $end
$var reg 1 Y valid_out_c $end
$upscope $end
$scope module word32_8bits_2 $end
$var wire 32 5" Data_in [31:0] $end
$var wire 1 6" _6_ $end
$var wire 1 Z valid_in $end
$var wire 1 4 reset $end
$var wire 1 5 clk_4f_e $end
$var reg 8 7" Data_out_c [7:0] $end
$var reg 8 8" _0_ [7:0] $end
$var reg 2 9" _1_ [1:0] $end
$var reg 1 :" _2_ $end
$var reg 8 ;" _3_ [7:0] $end
$var reg 2 <" _4_ [1:0] $end
$var reg 1 =" _5_ $end
$var reg 2 >" contador [1:0] $end
$var reg 1 X valid_out_c $end
$upscope $end
$upscope $end
$scope module probador_phy_tx1 $end
$var wire 1 ; Data_out_1bit_0_c $end
$var wire 1 : Data_out_1bit_0_e $end
$var wire 1 9 Data_out_1bit_1_c $end
$var wire 1 8 Data_out_1bit_1_e $end
$var reg 32 ?" Data_in [31:0] $end
$var reg 2 @" checker [1:0] $end
$var reg 1 7 clk_2f $end
$var reg 1 6 clk_32f $end
$var reg 1 5 clk_4f $end
$var reg 3 A" conteo_2 [2:0] $end
$var reg 2 B" conteo_4 [1:0] $end
$var reg 1 4 reset $end
$var reg 1 3 valid_in $end
$upscope $end
$upscope $end
$enddefinitions $end
#0
$dumpvars
b11 B"
b111 A"
b11 @"
b0 ?"
b0 >"
0="
b0 <"
b0 ;"
0:"
b0 9"
b0 8"
b0 7"
16"
b0 5"
b0 4"
03"
b0 2"
b0 1"
00"
b0 /"
b0 ."
b0 -"
1,"
b0 +"
b10111100 *"
b0 )"
b10111100 ("
b1 '"
1&"
b10111100 %"
b0 $"
0#"
b0 ""
1!"
b10111100 ~
b0 }
b10111100 |
b1 {
1z
b10111100 y
b0 x
0w
b0 v
1u
b0 t
b0 s
0r
0q
0p
b0 o
b0 n
0m
0l
0k
b0 j
b0 i
0h
b0 g
1f
1e
0d
0c
b0 b
b0 a
b0 `
0_
0^
b0 ]
b0 \
0[
0Z
0Y
0X
b0 W
b0 V
b0 U
b0 T
b0 S
b0 R
b10111100 Q
b0 P
b0 O
b10111100 N
b0 M
b0 L
b0 K
b0 J
0I
b0 H
b0 G
b0 F
b0 E
0D
0C
b0 B
b0 A
0@
0?
0>
0=
b0 <
0;
0:
09
08
07
06
05
04
03
z2
z1
x0
z/
z.
x-
z,
z+
x*
z)
z(
z'
z&
x%
z$
z#
z"
z!
$end
#1000
13"
b1 2"
b11111111 1"
0f
b11111111111111111111111111111111 i
1k
1h
1q
b11101110111011101110111011101110 o
18
1:
1@
b11111111111111111111111111111111 B
b11111111111111111111111111111111 J
b11111111111111111111111111111111 R
1I
b11111111111111111111111111111111 ]
b11111111111111111111111111111111 s
b11111111111111111111111111111111 +"
1[
1r
19
1;
1p
b11111111111111111111111111111111 n
0m
06"
0,"
0!"
0u
0e
b10 {
0z
1w
b1 x
1d
1c
b10 '"
0&"
1#"
b1 $"
17
b0 A"
15
b0 B"
b11101110111011101110111011101110 <
b11101110111011101110111011101110 G
b11101110111011101110111011101110 H
b11101110111011101110111011101110 b
b11101110111011101110111011101110 g
b11101110111011101110111011101110 ?"
13
14
b1 M
1D
b1 P
1C
1_
b1 }
1^
b1 )"
16
#2000
06
#3000
08
0:
09
0;
b11 '"
1&"
0#"
b10 $"
0d
0c
b11 {
1z
0w
b10 x
0^
b10 )"
0_
b10 }
b10 P
0C
b10 M
0D
b1 A"
b1 B"
16
#4000
06
#5000
18
1:
19
1;
b100 {
1w
b11 x
1d
1c
b100 '"
1#"
b11 $"
b10 A"
b10 B"
b11 M
1D
b11 P
1C
1_
b11 }
1^
b11 )"
16
#6000
06
#7000
b101 '"
b100 $"
b101 {
b100 x
b100 )"
b100 }
b100 P
b100 M
b11 A"
b11 B"
16
#8000
06
#9000
b110 {
b101 x
b110 '"
b101 $"
b100 A"
05
b0 B"
b101 M
b101 P
b101 }
b101 )"
16
#10000
06
#11000
b111 '"
0&"
b110 $"
b111 {
0z
b110 x
b110 )"
b110 }
b110 P
b110 M
b101 A"
b1 B"
16
#12000
06
#13000
08
0:
09
0;
b0 {
0w
b111 x
0d
0c
b0 '"
0#"
b111 $"
b110 A"
b10 B"
b111 M
0D
b111 P
0C
0_
b111 }
0^
b111 )"
16
#14000
06
#15000
b1 '"
1&"
b0 $"
b1 {
1z
b0 x
b0 )"
b0 }
b0 P
b0 M
b111 A"
b11 B"
16
#16000
06
#17000
b10 2"
b11111111 ."
10"
b1 /"
18
1:
b11111111 a
b11111111 v
b11111111 -"
1Y
b1 4"
1>
b1 T
b11111111 F
b11111111 L
b11111111 S
19
1;
b10 {
0z
1w
b1 x
1d
1c
b10 '"
0&"
1#"
b1 $"
07
b0 A"
15
b0 B"
b1 M
1D
b1 P
1C
1_
b1 }
1^
b1 )"
16
#18000
06
#19000
08
0:
09
0;
b11 '"
1&"
0#"
b10 $"
0d
0c
b11 {
1z
0w
b10 x
0^
b10 )"
0_
b10 }
b10 P
0C
b10 M
0D
b1 A"
b1 B"
16
#20000
06
#21000
18
1:
19
1;
b100 {
1w
b11 x
1d
1c
b100 '"
1#"
b11 $"
b10 A"
b10 B"
b11 M
1D
b11 P
1C
1_
b11 }
1^
b11 )"
16
#22000
06
#23000
b101 '"
b100 $"
b101 {
b100 x
b100 )"
b100 }
b100 P
b100 M
b11 A"
b11 B"
16
#24000
06
#25000
b110 {
b101 x
b110 '"
b101 $"
b100 A"
05
b0 B"
b101 M
b101 P
b101 }
b101 )"
16
#26000
06
#27000
b111 '"
0&"
b110 $"
b111 {
0z
b110 x
b110 )"
b110 }
b110 P
b110 M
b101 A"
b1 B"
16
#28000
06
#29000
08
0:
09
0;
b11111111 |
b0 {
0w
b111 x
0d
0c
b0 '"
0#"
b111 $"
b110 A"
b10 B"
b111 M
0D
b111 P
0C
0_
b111 }
0^
b111 )"
16
#30000
06
#31000
b1 '"
1&"
b0 $"
b1 {
1z
b11111111 y
b0 x
b0 )"
b11111111 ~
b0 }
b0 P
b11111111 N
b0 M
b111 A"
b11 B"
16
#32000
06
#33000
b11011101110111011101110111011101 n
1m
0h
b11101110111011101110111011101110 j
1l
1="
b1 <"
b11101110 ;"
b11 2"
b10 /"
18
1:
b11011101110111011101110111011101 <
b11011101110111011101110111011101 G
b11011101110111011101110111011101 H
b11011101110111011101110111011101 b
b11011101110111011101110111011101 g
b11011101110111011101110111011101 ?"
0r
b11101110111011101110111011101110 \
b11101110111011101110111011101110 t
b11101110111011101110111011101110 5"
1Z
1?
b11101110111011101110111011101110 A
b11101110111011101110111011101110 K
b11101110111011101110111011101110 U
0I
b10 T
b10 4"
19
1;
b10 {
1w
b1 x
1d
1c
b10 '"
0&"
1#"
b1 $"
17
b0 A"
15
b0 B"
b1 M
1D
b1 P
1C
1_
b1 }
1^
b1 )"
16
#34000
06
#35000
08
09
0d
b11 '"
1&"
0#"
b10 $"
b11 {
b10 x
0^
b10 )"
b10 }
b10 P
0C
b10 M
b1 A"
b1 B"
16
#36000
06
#37000
18
19
b100 {
b11 x
1d
b100 '"
1#"
b11 $"
b10 A"
b10 B"
b11 M
b11 P
1C
b11 }
1^
b11 )"
16
#38000
06
#39000
b101 '"
b100 $"
b101 {
b100 x
b100 )"
b100 }
b100 P
b100 M
b11 A"
b11 B"
16
#40000
06
#41000
b110 {
b101 x
b110 '"
b101 $"
b100 A"
05
b0 B"
b101 M
b101 P
b101 }
b101 )"
16
#42000
06
#43000
b111 '"
0&"
b110 $"
b111 {
b110 x
b110 )"
b110 }
b110 P
b110 M
b101 A"
b1 B"
16
#44000
06
#45000
08
09
b0 {
b111 x
0d
b0 '"
0#"
b111 $"
b110 A"
b10 B"
b111 M
b111 P
0C
b111 }
0^
b111 )"
16
#46000
06
#47000
b1 '"
1&"
b0 $"
b1 {
b0 x
b0 )"
b0 }
b0 P
b0 M
b111 A"
b11 B"
16
#48000
06
#49000
b10 <"
b11101110 8"
1:"
b1 9"
b0 2"
b11 /"
18
b11101110 `
b11101110 ""
b11101110 7"
1X
b1 >"
b11 4"
1=
b1 W
b11101110 E
b11101110 O
b11101110 V
b11 T
19
b10 {
b1 x
1d
b10 '"
0&"
1#"
b1 $"
07
b0 A"
15
b0 B"
b1 M
b1 P
1C
b1 }
1^
b1 )"
16
#50000
06
#51000
08
09
0d
b11 '"
1&"
0#"
b10 $"
b11 {
b10 x
0^
b10 )"
b10 }
b10 P
0C
b10 M
b1 A"
b1 B"
16
#52000
06
#53000
18
19
b100 {
b11 x
1d
b100 '"
1#"
b11 $"
b10 A"
b10 B"
b11 M
b11 P
1C
b11 }
1^
b11 )"
16
#54000
06
#55000
b101 '"
b100 $"
b101 {
b100 x
b100 )"
b100 }
b100 P
b100 M
b11 A"
b11 B"
16
#56000
06
#57000
b110 {
b101 x
b110 '"
b101 $"
b100 A"
05
b0 B"
b101 M
b101 P
b101 }
b101 )"
16
#58000
06
#59000
b111 '"
0&"
b110 $"
b111 {
b110 x
b110 )"
b110 }
b110 P
b110 M
b101 A"
b1 B"
16
#60000
06
#61000
08
09
b0 {
b111 x
0d
b11101110 ("
b0 '"
0#"
b111 $"
b110 A"
b10 B"
b111 M
b111 P
0C
b111 }
0^
b111 )"
16
#62000
06
#63000
b1 '"
1&"
b11101110 %"
b0 $"
b1 {
b0 x
b11101110 *"
b0 )"
b0 }
b11101110 Q
b0 P
b0 M
b111 A"
b11 B"
16
#64000
06
#65000
b11011101110111011101110111011101 i
1h
b11001100110011001100110011001100 o
0m
b1 2"
b11011101 1"
b0 /"
b11 <"
b10 9"
18
b11011101110111011101110111011101 B
b11011101110111011101110111011101 J
b11011101110111011101110111011101 R
1I
b11011101110111011101110111011101 ]
b11011101110111011101110111011101 s
b11011101110111011101110111011101 +"
1r
b11001100110011001100110011001100 <
b11001100110011001100110011001100 G
b11001100110011001100110011001100 H
b11001100110011001100110011001100 b
b11001100110011001100110011001100 g
b11001100110011001100110011001100 ?"
b0 T
b10 W
b0 4"
b10 >"
19
b10 {
b1 x
1d
b10 '"
1#"
b1 $"
17
b0 A"
15
b0 B"
b1 M
b1 P
1C
b1 }
1^
b1 )"
16
#66000
06
#67000
b11 '"
b10 $"
b11 {
b10 x
b10 )"
b10 }
b10 P
b10 M
b1 A"
b1 B"
16
#68000
06
#69000
b100 {
b11 x
b100 '"
0&"
b11 $"
b10 A"
b10 B"
b11 M
b11 P
b11 }
b11 )"
16
#70000
06
#71000
08
09
0d
b101 '"
1&"
0#"
b100 $"
b101 {
b100 x
0^
b100 )"
b100 }
b100 P
0C
b100 M
b11 A"
b11 B"
16
#72000
06
#73000
18
19
b110 {
b101 x
1d
b110 '"
1#"
b101 $"
b100 A"
05
b0 B"
b101 M
b101 P
1C
b101 }
1^
b101 )"
16
#74000
06
#75000
b111 '"
b110 $"
b111 {
b110 x
b110 )"
b110 }
b110 P
b110 M
b101 A"
b1 B"
16
#76000
06
#77000
b0 {
b111 x
b0 '"
0&"
b111 $"
b110 A"
b10 B"
b111 M
b111 P
b111 }
b111 )"
16
#78000
06
#79000
08
09
0d
b1 '"
1&"
0#"
b0 $"
b1 {
b0 x
0^
b0 )"
b0 }
b0 P
0C
b0 M
b111 A"
b11 B"
16
#80000
06
#81000
b0 <"
b11 9"
b10 2"
b11011101 ."
b1 /"
18
b11 >"
b11011101 a
b11011101 v
b11011101 -"
b1 4"
b11 W
b1 T
b11011101 F
b11011101 L
b11011101 S
19
b10 {
b1 x
1d
b10 '"
1#"
b1 $"
07
b0 A"
15
b0 B"
b1 M
b1 P
1C
b1 }
1^
b1 )"
16
#82000
06
#83000
b11 '"
b10 $"
b11 {
b10 x
b10 )"
b10 }
b10 P
b10 M
b1 A"
b1 B"
16
#84000
06
#85000
b100 {
b11 x
b100 '"
0&"
b11 $"
b10 A"
b10 B"
b11 M
b11 P
b11 }
b11 )"
16
#86000
06
#87000
08
09
0d
b101 '"
1&"
0#"
b100 $"
b101 {
b100 x
0^
b100 )"
b100 }
b100 P
0C
b100 M
b11 A"
b11 B"
16
#88000
06
#89000
18
19
b110 {
b101 x
1d
b110 '"
1#"
b101 $"
b100 A"
05
b0 B"
b101 M
b101 P
1C
b101 }
1^
b101 )"
16
#90000
06
#91000
b111 '"
b110 $"
b111 {
b110 x
b110 )"
b110 }
b110 P
b110 M
b101 A"
b1 B"
16
#92000
06
#93000
b11011101 |
b0 {
b111 x
b0 '"
0&"
b111 $"
b110 A"
b10 B"
b111 M
b111 P
b111 }
b111 )"
16
#94000
06
#95000
08
09
0d
b1 '"
1&"
0#"
b0 $"
b1 {
b11011101 y
b0 x
0^
b0 )"
b11011101 ~
b0 }
b0 P
0C
b11011101 N
b0 M
b111 A"
b11 B"
16
#96000
06
#97000
b0 n
0p
0h
b11001100110011001100110011001100 j
b11 2"
b10 /"
b1 <"
b11001100 ;"
b0 9"
18
b0 <
b0 G
b0 H
b0 b
b0 g
b0 ?"
03
0r
b11001100110011001100110011001100 \
b11001100110011001100110011001100 t
b11001100110011001100110011001100 5"
b11001100110011001100110011001100 A
b11001100110011001100110011001100 K
b11001100110011001100110011001100 U
0I
b10 T
b0 W
b10 4"
b0 >"
19
b10 {
b1 x
1d
b10 '"
1#"
b1 $"
17
b0 A"
15
b0 B"
b1 M
b1 P
1C
b1 }
1^
b1 )"
16
#98000
06
#99000
b11 '"
b10 $"
b11 {
0z
b10 x
b10 )"
b10 }
b10 P
b10 M
b1 A"
b1 B"
16
#100000
06
#101000
0:
0;
0c
b100 {
1z
0w
b11 x
b100 '"
0&"
b11 $"
b10 A"
b10 B"
b11 M
0D
b11 P
0_
b11 }
b11 )"
16
#102000
06
#103000
08
1:
09
1;
b101 '"
1&"
0#"
b100 $"
0d
1c
b101 {
1w
b100 x
0^
b100 )"
1_
b100 }
b100 P
0C
b100 M
1D
b11 A"
b11 B"
16
#104000
06
#105000
18
19
b110 {
b101 x
1d
b110 '"
1#"
b101 $"
b100 A"
05
b0 B"
b101 M
b101 P
1C
b101 }
1^
b101 )"
16
#106000
06
#107000
b111 '"
b110 $"
b111 {
0z
b110 x
b110 )"
b110 }
b110 P
b110 M
b101 A"
b1 B"
16
#108000
06
#109000
0:
0;
0c
b0 {
1z
0w
b111 x
b0 '"
0&"
b111 $"
b110 A"
b10 B"
b111 M
0D
b111 P
0_
b111 }
b111 )"
16
#110000
06
#111000
08
1:
09
1;
b1 '"
1&"
0#"
b0 $"
0d
1c
b1 {
1w
b0 x
0^
b0 )"
1_
b0 }
b0 P
0C
b0 M
1D
b111 A"
b11 B"
16
#112000
06
#113000
b10 <"
b11001100 8"
b1 9"
b0 2"
b11 /"
18
b11001100 `
b11001100 ""
b11001100 7"
b1 >"
b11 4"
b1 W
b11001100 E
b11001100 O
b11001100 V
b11 T
19
b10 {
b1 x
1d
b10 '"
1#"
b1 $"
07
b0 A"
15
b0 B"
b1 M
b1 P
1C
b1 }
1^
b1 )"
16
#114000
06
#115000
b11 '"
b10 $"
b11 {
0z
b10 x
b10 )"
b10 }
b10 P
b10 M
b1 A"
b1 B"
16
#116000
06
#117000
0:
0;
0c
b100 {
1z
0w
b11 x
b100 '"
0&"
b11 $"
b10 A"
b10 B"
b11 M
0D
b11 P
0_
b11 }
b11 )"
16
#118000
06
#119000
08
1:
09
1;
b101 '"
1&"
0#"
b100 $"
0d
1c
b101 {
1w
b100 x
0^
b100 )"
1_
b100 }
b100 P
0C
b100 M
1D
b11 A"
b11 B"
16
#120000
06
#121000
18
19
b110 {
b101 x
1d
b110 '"
1#"
b101 $"
b100 A"
05
b0 B"
b101 M
b101 P
1C
b101 }
1^
b101 )"
16
#122000
06
#123000
b111 '"
b110 $"
b111 {
0z
b110 x
b110 )"
b110 }
b110 P
b110 M
b101 A"
b1 B"
16
#124000
06
#125000
0:
0;
0c
b0 {
1z
0w
b111 x
b11001100 ("
b0 '"
0&"
b111 $"
b110 A"
b10 B"
b111 M
0D
b111 P
0_
b111 }
b111 )"
16
#126000
06
#127000
08
1:
09
1;
b1 '"
1&"
b11001100 %"
0#"
b0 $"
0d
1c
b1 {
1w
b0 x
b11001100 *"
0^
b0 )"
1_
b0 }
b11001100 Q
b0 P
0C
b0 M
1D
b111 A"
b11 B"
16
#128000
06
#129000
0q
b0 o
b0 i
0k
1f
b0 1"
03"
b0 /"
b11 <"
b10 9"
18
b0 B
b0 J
b0 R
0@
b0 ]
b0 s
b0 +"
0[
b0 T
b10 W
b0 4"
b10 >"
19
b10 {
b1 x
1d
b10 '"
1#"
b1 $"
17
b0 A"
15
b0 B"
b1 M
b1 P
1C
b1 }
1^
b1 )"
16
#130000
06
#131000
b11 '"
0&"
b10 $"
b11 {
0z
b10 x
b10 )"
b10 }
b10 P
b10 M
b1 A"
b1 B"
16
#132000
06
#133000
08
0:
09
0;
b100 {
1z
0w
b11 x
0d
0c
b100 '"
0#"
b11 $"
b10 A"
b10 B"
b11 M
0D
b11 P
0C
0_
b11 }
0^
b11 )"
16
#134000
06
#135000
1:
1;
b101 '"
1&"
b100 $"
1c
b101 {
1w
b100 x
b100 )"
1_
b100 }
b100 P
b100 M
1D
b11 A"
b11 B"
16
#136000
06
#137000
18
19
b110 {
b101 x
1d
b110 '"
1#"
b101 $"
b100 A"
05
b0 B"
b101 M
b101 P
1C
b101 }
1^
b101 )"
16
#138000
06
#139000
b111 '"
0&"
b110 $"
b111 {
0z
b110 x
b110 )"
b110 }
b110 P
b110 M
b101 A"
b1 B"
16
#140000
06
#141000
08
0:
09
0;
b0 {
1z
0w
b111 x
0d
0c
b0 '"
0#"
b111 $"
b110 A"
b10 B"
b111 M
0D
b111 P
0C
0_
b111 }
0^
b111 )"
16
#142000
06
#143000
1:
1;
b1 '"
1&"
b0 $"
1c
b1 {
1w
b0 x
b0 )"
1_
b0 }
b0 P
b0 M
1D
b111 A"
b11 B"
16
#144000
06
#145000
b0 <"
b11 9"
b0 ."
00"
18
b11 >"
b0 a
b0 v
b0 -"
0Y
b11 W
b0 F
b0 L
b0 S
0>
19
b10 {
b1 x
1d
b10 '"
1#"
b1 $"
07
b0 A"
15
b0 B"
b1 M
b1 P
1C
b1 }
1^
b1 )"
16
#146000
06
#147000
b11 '"
0&"
b10 $"
b11 {
0z
b10 x
b10 )"
b10 }
b10 P
b10 M
b1 A"
b1 B"
16
#148000
06
#149000
08
0:
09
0;
b100 {
1z
0w
b11 x
0d
0c
b100 '"
0#"
b11 $"
b10 A"
b10 B"
b11 M
0D
b11 P
0C
0_
b11 }
0^
b11 )"
16
#150000
06
#151000
1:
1;
b101 '"
1&"
b100 $"
1c
b101 {
1w
b100 x
b100 )"
1_
b100 }
b100 P
b100 M
1D
b11 A"
b11 B"
16
#152000
06
#153000
18
19
b110 {
b101 x
1d
b110 '"
1#"
b101 $"
b100 A"
05
b0 B"
b101 M
b101 P
1C
b101 }
1^
b101 )"
16
#154000
06
#155000
b111 '"
0&"
b110 $"
b111 {
0z
b110 x
b110 )"
b110 }
b110 P
b110 M
b101 A"
b1 B"
16
#156000
06
#157000
08
0:
09
0;
b10111100 |
b0 {
1z
0w
b111 x
0d
0c
b0 '"
0#"
b111 $"
b110 A"
b10 B"
b111 M
0D
b111 P
0C
0_
b111 }
0^
b111 )"
16
#158000
06
#159000
1:
1;
b1 '"
1&"
b0 $"
1c
b1 {
b10111100 y
1w
b0 x
b0 )"
b10111100 ~
1_
b0 }
b0 P
b10111100 N
b0 M
1D
b111 A"
b11 B"
16
#160000
06
#161000
b0 j
0l
b0 ;"
0="
b0 9"
18
b0 \
b0 t
b0 5"
0Z
0?
b0 A
b0 K
b0 U
b0 W
b0 >"
19
b10 {
0z
b1 x
1d
b10 '"
1#"
b1 $"
17
b0 A"
15
b0 B"
b1 M
b1 P
1C
b1 }
1^
b1 )"
16
#162000
06
#163000
0:
0;
b11 '"
0&"
b10 $"
0c
b11 {
1z
0w
b10 x
b10 )"
0_
b10 }
b10 P
b10 M
0D
b1 A"
b1 B"
16
#164000
06
#165000
08
1:
09
1;
b100 {
1w
b11 x
0d
1c
b100 '"
0#"
b11 $"
b10 A"
b10 B"
b11 M
1D
b11 P
0C
1_
b11 }
0^
b11 )"
16
#166000
06
#167000
b101 '"
1&"
b100 $"
b101 {
b100 x
b100 )"
b100 }
b100 P
b100 M
b11 A"
b11 B"
16
#168000
06
#169000
18
19
b110 {
b101 x
1d
b110 '"
1#"
b101 $"
b100 A"
05
b0 B"
b101 M
b101 P
1C
b101 }
1^
b101 )"
16
#170000
06
#171000
b111 '"
0&"
b110 $"
b111 {
0z
b110 x
b110 )"
b110 }
b110 P
b110 M
b101 A"
b1 B"
16
#172000
06
#173000
08
0:
09
0;
b0 {
0w
b111 x
0d
0c
b0 '"
0#"
b111 $"
b110 A"
b10 B"
b111 M
0D
b111 P
0C
0_
b111 }
0^
b111 )"
16
#174000
06
#175000
b1 '"
1&"
b0 $"
b1 {
1z
b0 x
b0 )"
b0 }
b0 P
b0 M
b111 A"
b11 B"
16
#176000
06
#177000
b0 8"
0:"
18
1:
b0 `
b0 ""
b0 7"
0X
b0 E
b0 O
b0 V
0=
19
1;
b10 {
0z
1w
b1 x
1d
1c
b10 '"
1#"
b1 $"
07
b0 A"
15
b0 B"
b1 M
1D
b1 P
1C
1_
b1 }
1^
b1 )"
16
#178000
06
#179000
0:
0;
b11 '"
0&"
b10 $"
0c
b11 {
1z
0w
b10 x
b10 )"
0_
b10 }
b10 P
b10 M
0D
b1 A"
b1 B"
16
#180000
06
#181000
08
1:
09
1;
b100 {
1w
b11 x
0d
1c
b100 '"
0#"
b11 $"
b10 A"
b10 B"
b11 M
1D
b11 P
0C
1_
b11 }
0^
b11 )"
16
#182000
06
#183000
b101 '"
1&"
b100 $"
b101 {
b100 x
b100 )"
b100 }
b100 P
b100 M
b11 A"
b11 B"
16
#184000
06
#185000
18
19
b110 {
b101 x
1d
b110 '"
1#"
b101 $"
b100 A"
05
b0 B"
b101 M
b101 P
1C
b101 }
1^
b101 )"
16
#186000
06
#187000
b111 '"
0&"
b110 $"
b111 {
0z
b110 x
b110 )"
b110 }
b110 P
b110 M
b101 A"
b1 B"
16
#188000
06
#189000
08
0:
09
0;
b0 {
0w
b111 x
0d
0c
b10111100 ("
b0 '"
0#"
b111 $"
b110 A"
b10 B"
b111 M
0D
b111 P
0C
0_
b111 }
0^
b111 )"
16
#190000
06
#191000
b1 '"
1&"
b10111100 %"
b0 $"
b1 {
1z
b0 x
b10111100 *"
b0 )"
b0 }
b10111100 Q
b0 P
b0 M
b111 A"
b11 B"
16
#192000
06
#193000
1p
b11 n
1m
18
1:
b11 <
b11 G
b11 H
b11 b
b11 g
b11 ?"
13
19
1;
b10 {
0z
1w
b1 x
1d
1c
b10 '"
0&"
1#"
b1 $"
17
b0 A"
15
b0 B"
b1 M
1D
b1 P
1C
1_
b1 }
1^
b1 )"
16
#194000
06
#195000
08
0:
09
0;
b11 '"
1&"
0#"
b10 $"
0d
0c
b11 {
1z
0w
b10 x
0^
b10 )"
0_
b10 }
b10 P
0C
b10 M
0D
b1 A"
b1 B"
16
#196000
06
