serial-parallel/prueba_serial_parallel.vcd
$date
	Sun Oct 17 22:21:15 2021
$end
$version
	Icarus Verilog
$end
$timescale
	1ps
$end
$scope module BUF $end
$var wire 1 ! A $end
$var wire 1 " Y $end
$upscope $end
$scope module DFF $end
$var wire 1 # C $end
$var wire 1 $ D $end
$var reg 1 % Q $end
$upscope $end
$scope module DFFSR $end
$var wire 1 & C $end
$var wire 1 ' D $end
$var wire 1 ( R $end
$var wire 1 ) S $end
$var reg 1 * Q $end
$upscope $end
$scope module NAND $end
$var wire 1 + A $end
$var wire 1 , B $end
$var wire 1 - Y $end
$upscope $end
$scope module NOR $end
$var wire 1 . A $end
$var wire 1 / B $end
$var wire 1 0 Y $end
$upscope $end
$scope module NOT $end
$var wire 1 1 A $end
$var wire 1 2 Y $end
$upscope $end
$scope module testbench_serial_parallel $end
$var wire 1 3 valid_out_e $end
$var wire 1 4 valid_out_c $end
$var wire 1 5 reset $end
$var wire 1 6 clk_32f $end
$var wire 8 7 Data_out_e [7:0] $end
$var wire 8 8 Data_out_c [7:0] $end
$var wire 1 9 Data_in $end
$scope module probador_1 $end
$var wire 1 3 valid_out_e $end
$var wire 1 4 valid_out_c $end
$var wire 8 : Data_out_e [7:0] $end
$var wire 8 ; Data_out_c [7:0] $end
$var reg 1 9 Data_in $end
$var reg 2 < checker [1:0] $end
$var reg 1 6 clk_32f $end
$var reg 1 5 reset $end
$upscope $end
$scope module serial_parallel_1 $end
$var wire 1 9 Data_in $end
$var wire 1 6 clk_32f $end
$var wire 1 5 reset $end
$var reg 2 = BC_count [1:0] $end
$var reg 8 > Data_out_c [7:0] $end
$var reg 1 ? active $end
$var reg 3 @ contador [2:0] $end
$var reg 8 A memoria [7:0] $end
$var reg 1 4 valid_out_c $end
$upscope $end
$scope module serial_parallel_2 $end
$var wire 1 9 Data_in $end
$var wire 1 B _16_ $end
$var wire 1 C _17_ $end
$var wire 1 D _18_ $end
$var wire 1 E _19_ $end
$var wire 1 6 clk_32f $end
$var wire 1 5 reset $end
$var wire 8 F _15_ [7:0] $end
$var wire 2 G _13_ [1:0] $end
$var wire 4 H _12_ [3:0] $end
$var reg 2 I BC_count [1:0] $end
$var reg 8 J Data_out_e [7:0] $end
$var reg 2 K _00_ [1:0] $end
$var reg 8 L _01_ [7:0] $end
$var reg 1 M _02_ $end
$var reg 3 N _03_ [2:0] $end
$var reg 8 O _04_ [7:0] $end
$var reg 1 P _05_ $end
$var reg 2 Q _06_ [1:0] $end
$var reg 8 R _07_ [7:0] $end
$var reg 1 S _08_ $end
$var reg 3 T _09_ [2:0] $end
$var reg 8 U _10_ [7:0] $end
$var reg 1 V _11_ $end
$var reg 1 W active $end
$var reg 3 X contador [2:0] $end
$var reg 8 Y memoria [7:0] $end
$var reg 1 3 valid_out_e $end
$upscope $end
$upscope $end
$enddefinitions $end
#0
$dumpvars
b0 Y
b111 X
0W
0V
b0 U
b0 T
0S
b0 R
b0 Q
0P
b0 O
b111 N
0M
b0 L
b0 K
b0 J
b0 I
b1110 H
b11 G
b10111100 F
0E
0D
1C
1B
b0 A
b111 @
0?
b0 >
b0 =
b11 <
b0 ;
b0 :
09
b0 8
b0 7
06
05
04
03
z2
z1
x0
z/
z.
x-
z,
z+
x*
z)
z(
z'
z&
x%
z$
z#
z"
z!
$end
#1000
b0 N
b10000000 U
b1 T
0C
b0 @
b0 X
19
15
16
#2000
06
#3000
b110 H
b111100 F
b10 T
b10000000 O
b1 N
09
b10000000 Y
b1 X
b10000000 A
b1 @
16
#4000
06
#5000
b10 N
b10100000 U
b11 T
b10 @
b10 X
19
16
#6000
06
#7000
b11100 F
b10110000 U
b100 T
b10100000 O
b11 N
b10100000 Y
b11 X
b10100000 A
b11 @
16
#8000
06
#9000
b1 G
b10 H
b1100 F
b10111000 U
b101 T
b10110000 O
b100 N
b10110000 A
b100 @
b10110000 Y
b100 X
16
#10000
06
#11000
b100 F
b10111100 U
b110 T
b10111000 O
b101 N
b10111000 Y
b101 X
b10111000 A
b101 @
16
#12000
06
#13000
1D
1E
0B
b0 G
b0 H
b0 F
b10111100 O
b110 N
b111 T
b10111100 A
b110 @
b10111100 Y
b110 X
09
16
#14000
06
#15000
b0 T
b111 N
b111 X
b111 @
16
#16000
06
#17000
b0 N
b1 Q
b10000000 U
b1 T
b0 @
b0 X
19
16
#18000
06
#19000
0D
0E
1B
b11 G
b110 H
b111100 F
b10 T
b10000000 O
b1 K
b1 N
09
b10000000 Y
b1 I
b1 X
b10000000 A
b1 @
b1 =
16
#20000
06
#21000
b10 N
b10100000 U
b11 T
b10 @
b10 X
19
16
#22000
06
#23000
b11100 F
b10110000 U
b100 T
b10100000 O
b11 N
b10100000 Y
b11 X
b10100000 A
b11 @
16
#24000
06
#25000
b1 G
b10 H
b1100 F
b10111000 U
b101 T
b10110000 O
b100 N
b10110000 A
b100 @
b10110000 Y
b100 X
16
#26000
06
#27000
b100 F
b10111100 U
b110 T
b10111000 O
b101 N
b10111000 Y
b101 X
b10111000 A
b101 @
16
#28000
06
#29000
1D
1E
0B
b0 G
b0 H
b0 F
b10111100 O
b110 N
b111 T
b10111100 A
b110 @
b10111100 Y
b110 X
09
16
#30000
06
#31000
b0 T
b111 N
b111 X
b111 @
16
#32000
06
#33000
b0 N
b10 Q
b10000000 U
b1 T
b0 @
b0 X
19
16
#34000
06
#35000
0D
0E
1B
b11 G
b110 H
b111100 F
b10 T
b10000000 O
b10 K
b1 N
09
b10000000 Y
b10 I
b1 X
b10000000 A
b1 @
b10 =
16
#36000
06
#37000
b10 N
b10100000 U
b11 T
b10 @
b10 X
19
16
#38000
06
#39000
b11100 F
b10110000 U
b100 T
b10100000 O
b11 N
b10100000 Y
b11 X
b10100000 A
b11 @
16
#40000
06
#41000
b1 G
b10 H
b1100 F
b10111000 U
b101 T
b10110000 O
b100 N
b10110000 A
b100 @
b10110000 Y
b100 X
16
#42000
06
#43000
b100 F
b10111100 U
b110 T
b10111000 O
b101 N
b10111000 Y
b101 X
b10111000 A
b101 @
16
#44000
06
#45000
1D
1E
0B
b0 G
b0 H
b0 F
b10111100 O
b110 N
b111 T
b10111100 A
b110 @
b10111100 Y
b110 X
09
16
#46000
06
#47000
b0 T
b111 N
b111 X
b111 @
16
#48000
06
#49000
b0 N
b11 Q
b10000000 U
b1 T
b0 @
b0 X
19
16
#50000
06
#51000
0D
0E
1B
b11 G
b110 H
b111100 F
b10 T
b10000000 O
b11 K
b1 N
09
b10000000 Y
b11 I
b1 X
b10000000 A
b1 @
b11 =
16
#52000
06
#53000
b10 N
b10100000 U
b11 T
b10 @
b10 X
19
16
#54000
06
#55000
b11100 F
b10110000 U
b100 T
b10100000 O
b11 N
b10100000 Y
b11 X
b10100000 A
b11 @
16
#56000
06
#57000
b1 G
b10 H
b1100 F
b10111000 U
b101 T
b10110000 O
b100 N
b10110000 A
b100 @
b10110000 Y
b100 X
16
#58000
06
#59000
b100 F
b10111100 U
b110 T
b10111000 O
b101 N
b10111000 Y
b101 X
b10111000 A
b101 @
16
#60000
06
#61000
1D
1E
0B
b0 G
b0 H
b0 F
b10111100 O
b110 N
b111 T
b10111100 A
b110 @
b10111100 Y
b110 X
09
16
#62000
06
#63000
b0 T
b111 N
b111 X
b111 @
16
#64000
06
#65000
b0 N
1S
b10000000 U
b1 T
b0 @
b0 X
19
16
#66000
06
#67000
0D
0E
1B
b11 G
b110 H
b111100 F
b11000000 U
b10 T
b10000000 O
1M
b1 N
b10000000 Y
1W
b1 X
b10000000 A
b1 @
1?
16
#68000
06
#69000
b1110 H
b1111100 F
b11100000 U
b11 T
b11000000 O
b10 N
b11000000 A
b10 @
b11000000 Y
b10 X
16
#70000
06
#71000
b1011100 F
b11110000 U
b100 T
b11100000 O
b11 N
b11100000 Y
b11 X
b11100000 A
b11 @
16
#72000
06
#73000
b1010 H
b1001100 F
b11111000 U
b101 T
b11110000 O
b100 N
b11110000 A
b100 @
b11110000 Y
b100 X
16
#74000
06
#75000
b1000100 F
b11111100 U
b110 T
b11111000 O
b101 N
b11111000 Y
b101 X
b11111000 A
b101 @
16
#76000
06
#77000
b10 G
b1000 H
b1000000 F
b11111110 U
b111 T
b11111100 O
b110 N
b11111100 A
b110 @
b11111100 Y
b110 X
16
#78000
06
#79000
b11 G
b1001 H
b1000010 F
b11111111 U
b0 T
b11111110 O
b111 N
b11111110 Y
b111 X
b11111110 A
b111 @
16
#80000
06
#81000
b1000011 F
b11111111 R
1V
b10000000 U
b1 T
b11111111 O
b0 N
b11111111 A
b0 @
b11111111 Y
b0 X
16
#82000
06
#83000
0D
0E
1B
b11 G
b110 H
b111100 F
b11000000 U
b10 T
1P
b10000000 O
b11111111 L
b1 N
13
b10000000 Y
b11111111 7
b11111111 :
b11111111 J
b1 X
b10000000 A
b1 @
b11111111 8
b11111111 ;
b11111111 >
14
16
#84000
06
#85000
b1110 H
b1111100 F
b11100000 U
b11 T
b11000000 O
b10 N
b11000000 A
b10 @
b11000000 Y
b10 X
16
#86000
06
#87000
b1011100 F
b100 T
b11100000 O
b11 N
09
b11100000 Y
b11 X
b11100000 A
b11 @
16
#88000
06
#89000
b100 N
b11101000 U
b101 T
b100 @
b100 X
19
16
#90000
06
#91000
b1010100 F
b11101100 U
b110 T
b11101000 O
b101 N
b11101000 Y
b101 X
b11101000 A
b101 @
16
#92000
06
#93000
b10 G
b1100 H
b1010000 F
b11101110 U
b111 T
b11101100 O
b110 N
b11101100 A
b110 @
b11101100 Y
b110 X
16
#94000
06
#95000
b11 G
b1101 H
b1010010 F
b0 T
b11101110 O
b111 N
09
b11101110 Y
b111 X
b11101110 A
b111 @
16
#96000
06
#97000
b0 N
b11101110 R
b10000000 U
b1 T
b0 @
b0 X
19
16
#98000
06
#99000
b11 G
b110 H
b111100 F
b10 T
b10000000 O
b11101110 L
b1 N
09
b10000000 Y
b11101110 7
b11101110 :
b11101110 J
b1 X
b10000000 A
b1 @
b11101110 8
b11101110 ;
b11101110 >
16
#100000
06
#101000
b10 N
b10100000 U
b11 T
b10 @
b10 X
19
16
#102000
06
#103000
b11100 F
b100 T
b10100000 O
b11 N
09
b10100000 Y
b11 X
b10100000 A
b11 @
16
#104000
06
#105000
b100 N
b10101000 U
b101 T
b100 @
b100 X
19
16
#106000
06
#107000
b10100 F
b110 T
b10101000 O
b101 N
09
b10101000 Y
b101 X
b10101000 A
b101 @
16
#108000
06
#109000
b110 N
b10101010 U
b111 T
b110 @
b110 X
19
16
#110000
06
#111000
b111 H
b10110 F
b0 T
b10101010 O
b111 N
09
b10101010 Y
b111 X
b10101010 A
b111 @
16
#112000
06
#113000
b0 N
b10101010 R
b10000000 U
b1 T
b0 @
b0 X
19
16
#114000
06
#115000
b110 H
b111100 F
b10 T
b10000000 O
b10101010 L
b1 N
09
b10000000 Y
b10101010 7
b10101010 :
b10101010 J
b1 X
b10000000 A
b1 @
b10101010 8
b10101010 ;
b10101010 >
16
#116000
06
#117000
b10 N
b10100000 U
b11 T
b10 @
b10 X
19
16
#118000
06
#119000
b11100 F
b10110000 U
b100 T
b10100000 O
b11 N
b10100000 Y
b11 X
b10100000 A
b11 @
16
#120000
06
#121000
b1 G
b10 H
b1100 F
b10111000 U
b101 T
b10110000 O
b100 N
b10110000 A
b100 @
b10110000 Y
b100 X
16
#122000
06
#123000
b100 F
b10111100 U
b110 T
b10111000 O
b101 N
b10111000 Y
b101 X
b10111000 A
b101 @
16
#124000
06
#125000
1D
1E
0B
b0 G
b0 H
b0 F
b10111100 O
b110 N
b111 T
b10111100 A
b110 @
b10111100 Y
b110 X
09
16
#126000
06
#127000
b0 T
b111 N
b111 X
b111 @
16
#128000
06
#129000
b0 N
b0 R
0V
b10000000 U
b1 T
b0 @
b0 X
19
16
#130000
06
#131000
0D
0E
1B
b11 G
b110 H
b111100 F
b11000000 U
b10 T
0P
b10000000 O
b0 L
b1 N
03
b10000000 Y
b0 7
b0 :
b0 J
b1 X
b10000000 A
b1 @
b0 8
b0 ;
b0 >
04
16
#132000
06
#133000
b1110 H
b1111100 F
b11000000 O
b10 N
b11 T
b11000000 A
b10 @
b11000000 Y
b10 X
09
16
#134000
06
#135000
b100 T
b11 N
b11 X
b11 @
16
#136000
06
#137000
b100 N
b11001000 U
b101 T
b100 @
b100 X
19
16
#138000
06
#139000
b1110100 F
b11001100 U
b110 T
b11001000 O
b101 N
b11001000 Y
b101 X
b11001000 A
b101 @
16
#140000
06
#141000
b10 G
b1100 H
b1110000 F
b11001100 O
b110 N
b111 T
b11001100 A
b110 @
b11001100 Y
b110 X
09
16
#142000
06
#143000
b0 T
b111 N
b111 X
b111 @
16
#144000
06
#145000
b0 N
b11001100 R
1V
b10000000 U
b1 T
b0 @
b0 X
19
16
#146000
06
#147000
b11 G
b110 H
b111100 F
b10 T
1P
b10000000 O
b11001100 L
b1 N
09
13
b10000000 Y
b11001100 7
b11001100 :
b11001100 J
b1 X
b10000000 A
b1 @
b11001100 8
b11001100 ;
b11001100 >
14
16
#148000
06
#149000
b10 N
b10100000 U
b11 T
b10 @
b10 X
19
16
#150000
06
#151000
b11100 F
b10110000 U
b100 T
b10100000 O
b11 N
b10100000 Y
b11 X
b10100000 A
b11 @
16
#152000
06
#153000
b1 G
b10 H
b1100 F
b10111000 U
b101 T
b10110000 O
b100 N
b10110000 A
b100 @
b10110000 Y
b100 X
16
#154000
06
#155000
b100 F
b10111100 U
b110 T
b10111000 O
b101 N
b10111000 Y
b101 X
b10111000 A
b101 @
16
#156000
06
#157000
1D
1E
0B
b0 G
b0 H
b0 F
b10111100 O
b110 N
b111 T
b10111100 A
b110 @
b10111100 Y
b110 X
09
16
#158000
06
#159000
b0 T
b111 N
b111 X
b111 @
16
#160000
06
#161000
b0 N
b0 R
0V
b10000000 U
b1 T
b0 @
b0 X
19
16
#162000
06
#163000
0D
0E
1B
b11 G
b110 H
b111100 F
b10 T
0P
b10000000 O
b0 L
b1 N
09
03
b10000000 Y
b0 7
b0 :
b0 J
b1 X
b10000000 A
b1 @
b0 8
b0 ;
b0 >
04
16
#164000
06
#165000
b10 N
b10100000 U
b11 T
b10 @
b10 X
19
16
#166000
06
#167000
b11100 F
b10110000 U
b100 T
b10100000 O
b11 N
b10100000 Y
b11 X
b10100000 A
b11 @
16
#168000
06
#169000
b1 G
b10 H
b1100 F
b10111000 U
b101 T
b10110000 O
b100 N
b10110000 A
b100 @
b10110000 Y
b100 X
16
#170000
06
#171000
b100 F
b10111100 U
b110 T
b10111000 O
b101 N
b10111000 Y
b101 X
b10111000 A
b101 @
16
#172000
06
#173000
1D
1E
0B
b0 G
b0 H
b0 F
b10111100 O
b110 N
b111 T
b10111100 A
b110 @
b10111100 Y
b110 X
09
16
#174000
06
#175000
b0 T
b111 N
b111 X
b111 @
16
#176000
06
#177000
b0 N
b10000000 U
b1 T
b0 @
b0 X
19
16
#178000
06
#179000
0D
0E
1B
b11 G
b110 H
b111100 F
b10 T
b10000000 O
b1 N
09
b10000000 Y
b1 X
b10000000 A
b1 @
16
#180000
06
#181000
b10 N
b10100000 U
b11 T
b10 @
b10 X
19
16
#182000
06
#183000
b11100 F
b10110000 U
b100 T
b10100000 O
b11 N
b10100000 Y
b11 X
b10100000 A
b11 @
16
#184000
06
#185000
b1 G
b10 H
b1100 F
b10111000 U
b101 T
b10110000 O
b100 N
b10110000 A
b100 @
b10110000 Y
b100 X
16
#186000
06
#187000
b100 F
b10111100 U
b110 T
b10111000 O
b101 N
b10111000 Y
b101 X
b10111000 A
b101 @
16
#188000
06
#189000
1D
1E
0B
b0 G
b0 H
b0 F
b10111100 O
b110 N
b111 T
b10111100 A
b110 @
b10111100 Y
b110 X
09
16
#190000
06
#191000
b0 T
b111 N
b111 X
b111 @
16
#192000
06
#193000
b0 U
b1 T
b0 N
b0 @
b0 X
16
