ProyectoFinal/clk-generator/prueba_clk.vcd
$date
	Tue Oct  5 15:07:42 2021
$end
$version
	Icarus Verilog
$end
$timescale
	1ps
$end
$scope module BUF $end
$var wire 1 ! A $end
$var wire 1 " Y $end
$upscope $end
$scope module DFF $end
$var wire 1 # C $end
$var wire 1 $ D $end
$var reg 1 % Q $end
$upscope $end
$scope module DFFSR $end
$var wire 1 & C $end
$var wire 1 ' D $end
$var wire 1 ( R $end
$var wire 1 ) S $end
$var reg 1 * Q $end
$upscope $end
$scope module NAND $end
$var wire 1 + A $end
$var wire 1 , B $end
$var wire 1 - Y $end
$upscope $end
$scope module NOR $end
$var wire 1 . A $end
$var wire 1 / B $end
$var wire 1 0 Y $end
$upscope $end
$scope module NOT $end
$var wire 1 1 A $end
$var wire 1 2 Y $end
$upscope $end
$scope module testbench_clk $end
$var wire 1 3 reset $end
$var wire 1 4 clk_f_e $end
$var wire 1 5 clk_f_c $end
$var wire 1 6 clk_4f_e $end
$var wire 1 7 clk_4f_c $end
$var wire 1 8 clk_32f $end
$var wire 1 9 clk_2f_e $end
$var wire 1 : clk_2f_c $end
$scope module generator_c $end
$var wire 1 3 reset $end
$var wire 1 8 clk_32f $end
$var reg 1 : clk_2f_c $end
$var reg 1 7 clk_4f_c $end
$var reg 1 5 clk_f_c $end
$var reg 4 ; conteo [3:0] $end
$var reg 3 < conteo_2 [2:0] $end
$var reg 2 = conteo_4 [1:0] $end
$upscope $end
$scope module generator_e $end
$var wire 1 > _12_ $end
$var wire 1 3 reset $end
$var wire 1 8 clk_32f $end
$var reg 1 ? _00_ $end
$var reg 1 @ _01_ $end
$var reg 1 A _02_ $end
$var reg 4 B _03_ [3:0] $end
$var reg 3 C _04_ [2:0] $end
$var reg 2 D _05_ [1:0] $end
$var reg 1 E _06_ $end
$var reg 1 F _07_ $end
$var reg 1 G _08_ $end
$var reg 4 H _09_ [3:0] $end
$var reg 3 I _10_ [2:0] $end
$var reg 2 J _11_ [1:0] $end
$var reg 1 9 clk_2f_e $end
$var reg 1 6 clk_4f_e $end
$var reg 1 4 clk_f_e $end
$var reg 4 K conteo [3:0] $end
$var reg 3 L conteo_2 [2:0] $end
$var reg 2 M conteo_4 [1:0] $end
$upscope $end
$scope module probador_1 $end
$var wire 1 : clk_2f_c $end
$var wire 1 9 clk_2f_e $end
$var wire 1 7 clk_4f_c $end
$var wire 1 6 clk_4f_e $end
$var wire 1 5 clk_f_c $end
$var wire 1 4 clk_f_e $end
$var reg 3 N checker [2:0] $end
$var reg 1 8 clk_32f $end
$var reg 1 3 reset $end
$upscope $end
$upscope $end
$enddefinitions $end
#0
$dumpvars
b111 N
b11 M
b111 L
b1111 K
b0 J
b0 I
b0 H
1G
1F
1E
b11 D
b111 C
b1111 B
0A
0@
0?
1>
b11 =
b111 <
b1111 ;
0:
09
08
07
06
05
04
03
z2
z1
x0
z/
z.
x-
z,
z+
x*
z)
z(
z'
z&
x%
z$
z#
z"
z!
$end
#1000
b1 H
b1 I
b1 J
1?
1@
b0 D
1A
b0 B
b0 C
0>
15
b0 ;
1:
b0 <
17
b0 =
19
16
b0 M
14
b0 K
b0 L
13
18
#2000
08
#3000
b10 H
b10 I
b10 J
b1 D
b1 B
b1 C
b1 M
b1 K
b1 L
b1 ;
b1 <
b1 =
18
#4000
08
#5000
b11 H
b11 I
b11 J
b10 D
b10 B
b10 C
b10 ;
b10 <
b10 =
b10 M
b10 K
b10 L
18
#6000
08
#7000
b100 H
b100 I
0F
b0 J
b11 D
b11 B
b11 C
b11 M
b11 K
b11 L
b11 ;
b11 <
b11 =
18
#8000
08
#9000
b101 H
b101 I
b1 J
0@
b0 D
b100 B
b100 C
b100 ;
b100 <
07
b0 =
06
b0 M
b100 K
b100 L
18
#10000
08
#11000
b110 H
b110 I
b10 J
b1 D
b101 B
b101 C
b1 M
b101 K
b101 L
b101 ;
b101 <
b1 =
18
#12000
08
#13000
b111 H
b111 I
b11 J
b10 D
b110 B
b110 C
b110 ;
b110 <
b10 =
b10 M
b110 K
b110 L
18
#14000
08
#15000
b1000 H
0E
b0 I
1F
b0 J
b11 D
b111 B
b111 C
b11 M
b111 K
b111 L
b111 ;
b111 <
b11 =
18
#16000
08
#17000
b1001 H
b1 I
b1 J
0?
1@
b0 D
b1000 B
b0 C
b1000 ;
0:
b0 <
17
b0 =
09
16
b0 M
b1000 K
b0 L
18
#18000
08
#19000
b1010 H
b10 I
b10 J
b1 D
b1001 B
b1 C
b1 M
b1001 K
b1 L
b1001 ;
b1 <
b1 =
18
#20000
08
#21000
b1011 H
b11 I
b11 J
b10 D
b1010 B
b10 C
b1010 ;
b10 <
b10 =
b10 M
b1010 K
b10 L
18
#22000
08
#23000
b1100 H
b100 I
0F
b0 J
b11 D
b1011 B
b11 C
b11 M
b1011 K
b11 L
b1011 ;
b11 <
b11 =
18
#24000
08
#25000
b1101 H
b101 I
b1 J
0@
b0 D
b1100 B
b100 C
b1100 ;
b100 <
07
b0 =
06
b0 M
b1100 K
b100 L
18
#26000
08
#27000
b1110 H
b110 I
b10 J
b1 D
b1101 B
b101 C
b1 M
b1101 K
b101 L
b1101 ;
b101 <
b1 =
18
#28000
08
#29000
b1111 H
b111 I
b11 J
b10 D
b1110 B
b110 C
b1110 ;
b110 <
b10 =
b10 M
b1110 K
b110 L
18
#30000
08
#31000
0G
b0 H
1E
b0 I
1F
b0 J
b11 D
b1111 B
b111 C
b11 M
b1111 K
b111 L
b1111 ;
b111 <
b11 =
18
#32000
08
#33000
b1 H
b1 I
b1 J
1?
1@
b0 D
0A
b0 B
b0 C
05
b0 ;
1:
b0 <
17
b0 =
19
16
b0 M
04
b0 K
b0 L
18
#34000
08
#35000
b10 H
b10 I
b10 J
b1 D
b1 B
b1 C
b1 M
b1 K
b1 L
b1 ;
b1 <
b1 =
18
#36000
08
#37000
b11 H
b11 I
b11 J
b10 D
b10 B
b10 C
b10 ;
b10 <
b10 =
b10 M
b10 K
b10 L
18
#38000
08
#39000
b100 H
b100 I
0F
b0 J
b11 D
b11 B
b11 C
b11 M
b11 K
b11 L
b11 ;
b11 <
b11 =
18
#40000
08
#41000
b101 H
b101 I
b1 J
0@
b0 D
b100 B
b100 C
b100 ;
b100 <
07
b0 =
06
b0 M
b100 K
b100 L
18
#42000
08
#43000
b110 H
b110 I
b10 J
b1 D
b101 B
b101 C
b1 M
b101 K
b101 L
b101 ;
b101 <
b1 =
18
#44000
08
#45000
b111 H
b111 I
b11 J
b10 D
b110 B
b110 C
b110 ;
b110 <
b10 =
b10 M
b110 K
b110 L
18
#46000
08
#47000
b1000 H
0E
b0 I
1F
b0 J
b11 D
b111 B
b111 C
b11 M
b111 K
b111 L
b111 ;
b111 <
b11 =
18
#48000
08
#49000
b1001 H
b1 I
b1 J
0?
1@
b0 D
b1000 B
b0 C
b1000 ;
0:
b0 <
17
b0 =
09
16
b0 M
b1000 K
b0 L
18
#50000
08
#51000
b1010 H
b10 I
b10 J
b1 D
b1001 B
b1 C
b1 M
b1001 K
b1 L
b1001 ;
b1 <
b1 =
18
#52000
08
#53000
b1011 H
b11 I
b11 J
b10 D
b1010 B
b10 C
b1010 ;
b10 <
b10 =
b10 M
b1010 K
b10 L
18
#54000
08
#55000
b1100 H
b100 I
0F
b0 J
b11 D
b1011 B
b11 C
b11 M
b1011 K
b11 L
b1011 ;
b11 <
b11 =
18
#56000
08
#57000
b1101 H
b101 I
b1 J
0@
b0 D
b1100 B
b100 C
b1100 ;
b100 <
07
b0 =
06
b0 M
b1100 K
b100 L
18
#58000
08
#59000
b1110 H
b110 I
b10 J
b1 D
b1101 B
b101 C
b1 M
b1101 K
b101 L
b1101 ;
b101 <
b1 =
18
#60000
08
#61000
b1111 H
b111 I
b11 J
b10 D
b1110 B
b110 C
b1110 ;
b110 <
b10 =
b10 M
b1110 K
b110 L
18
#62000
08
#63000
1G
b0 H
1E
b0 I
1F
b0 J
b11 D
b1111 B
b111 C
b11 M
b1111 K
b111 L
b1111 ;
b111 <
b11 =
18
#64000
08
#65000
b1 H
b1 I
b1 J
1?
1@
b0 D
1A
b0 B
b0 C
15
b0 ;
1:
b0 <
17
b0 =
19
16
b0 M
14
b0 K
b0 L
18
#66000
08
#67000
b10 H
b10 I
b10 J
b1 D
b1 B
b1 C
b1 M
b1 K
b1 L
b1 ;
b1 <
b1 =
18
#68000
08
#69000
b11 H
b11 I
b11 J
b10 D
b10 B
b10 C
b10 ;
b10 <
b10 =
b10 M
b10 K
b10 L
18
#70000
08
#71000
b100 H
b100 I
0F
b0 J
b11 D
b11 B
b11 C
b11 M
b11 K
b11 L
b11 ;
b11 <
b11 =
18
#72000
08
#73000
b101 H
b101 I
b1 J
0@
b0 D
b100 B
b100 C
b100 ;
b100 <
07
b0 =
06
b0 M
b100 K
b100 L
18
#74000
08
#75000
b110 H
b110 I
b10 J
b1 D
b101 B
b101 C
b1 M
b101 K
b101 L
b101 ;
b101 <
b1 =
18
#76000
08
#77000
b111 H
b111 I
b11 J
b10 D
b110 B
b110 C
b110 ;
b110 <
b10 =
b10 M
b110 K
b110 L
18
#78000
08
#79000
b1000 H
0E
b0 I
1F
b0 J
b11 D
b111 B
b111 C
b11 M
b111 K
b111 L
b111 ;
b111 <
b11 =
18
#80000
08
#81000
b1001 H
b1 I
b1 J
0?
1@
b0 D
b1000 B
b0 C
b1000 ;
0:
b0 <
17
b0 =
09
16
b0 M
b1000 K
b0 L
18
#82000
08
#83000
b1010 H
b10 I
b10 J
b1 D
b1001 B
b1 C
b1 M
b1001 K
b1 L
b1001 ;
b1 <
b1 =
18
#84000
08
#85000
b1011 H
b11 I
b11 J
b10 D
b1010 B
b10 C
b1010 ;
b10 <
b10 =
b10 M
b1010 K
b10 L
18
#86000
08
#87000
b1100 H
b100 I
0F
b0 J
b11 D
b1011 B
b11 C
b11 M
b1011 K
b11 L
b1011 ;
b11 <
b11 =
18
#88000
08
#89000
b1101 H
b101 I
b1 J
0@
b0 D
b1100 B
b100 C
b1100 ;
b100 <
07
b0 =
06
b0 M
b1100 K
b100 L
18
#90000
08
#91000
b1110 H
b110 I
b10 J
b1 D
b1101 B
b101 C
b1 M
b1101 K
b101 L
b1101 ;
b101 <
b1 =
18
#92000
08
#93000
b1111 H
b111 I
b11 J
b10 D
b1110 B
b110 C
b1110 ;
b110 <
b10 =
b10 M
b1110 K
b110 L
18
#94000
08
#95000
0G
b0 H
1E
b0 I
1F
b0 J
b11 D
b1111 B
b111 C
b11 M
b1111 K
b111 L
b1111 ;
b111 <
b11 =
18
#96000
08
#97000
b1 H
b1 I
b1 J
1?
1@
b0 D
0A
b0 B
b0 C
05
b0 ;
1:
b0 <
17
b0 =
19
16
b0 M
04
b0 K
b0 L
18
#98000
08
#99000
b10 H
b10 I
b10 J
b1 D
b1 B
b1 C
b1 M
b1 K
b1 L
b1 ;
b1 <
b1 =
18
#100000
08
#101000
b11 H
b11 I
b11 J
b10 D
b10 B
b10 C
b10 ;
b10 <
b10 =
b10 M
b10 K
b10 L
18
#102000
08
#103000
b100 H
b100 I
0F
b0 J
b11 D
b11 B
b11 C
b11 M
b11 K
b11 L
b11 ;
b11 <
b11 =
18
#104000
08
#105000
b101 H
b101 I
b1 J
0@
b0 D
b100 B
b100 C
b100 ;
b100 <
07
b0 =
06
b0 M
b100 K
b100 L
18
#106000
08
#107000
b110 H
b110 I
b10 J
b1 D
b101 B
b101 C
b1 M
b101 K
b101 L
b101 ;
b101 <
b1 =
18
#108000
08
#109000
b111 H
b111 I
b11 J
b10 D
b110 B
b110 C
b110 ;
b110 <
b10 =
b10 M
b110 K
b110 L
18
#110000
08
#111000
b1000 H
0E
b0 I
1F
b0 J
b11 D
b111 B
b111 C
b11 M
b111 K
b111 L
b111 ;
b111 <
b11 =
18
#112000
08
#113000
b1001 H
b1 I
b1 J
0?
1@
b0 D
b1000 B
b0 C
b1000 ;
0:
b0 <
17
b0 =
09
16
b0 M
b1000 K
b0 L
18
#114000
08
#115000
b1010 H
b10 I
b10 J
b1 D
b1001 B
b1 C
b1 M
b1001 K
b1 L
b1001 ;
b1 <
b1 =
18
#116000
08
#117000
b1011 H
b11 I
b11 J
b10 D
b1010 B
b10 C
b1010 ;
b10 <
b10 =
b10 M
b1010 K
b10 L
18
#118000
08
#119000
b1100 H
b100 I
0F
b0 J
b11 D
b1011 B
b11 C
b11 M
b1011 K
b11 L
b1011 ;
b11 <
b11 =
18
#120000
08
#121000
b1101 H
b101 I
b1 J
0@
b0 D
b1100 B
b100 C
b1100 ;
b100 <
07
b0 =
06
b0 M
b1100 K
b100 L
18
#122000
08
#123000
b1110 H
b110 I
b10 J
b1 D
b1101 B
b101 C
b1 M
b1101 K
b101 L
b1101 ;
b101 <
b1 =
18
#124000
08
#125000
b1111 H
b111 I
b11 J
b10 D
b1110 B
b110 C
b1110 ;
b110 <
b10 =
b10 M
b1110 K
b110 L
18
#126000
08
#127000
1G
b0 H
1E
b0 I
1F
b0 J
b11 D
b1111 B
b111 C
b11 M
b1111 K
b111 L
b1111 ;
b111 <
b11 =
18
#128000
08
#129000
b1 H
b1 I
b1 J
1?
1@
b0 D
1A
b0 B
b0 C
15
b0 ;
1:
b0 <
17
b0 =
19
16
b0 M
14
b0 K
b0 L
18
