bits8-32word/prueba_bits8_32word.vcd
$date
	Wed Oct  6 12:15:27 2021
$end
$version
	Icarus Verilog
$end
$timescale
	1ps
$end
$scope module BUF $end
$var wire 1 ! A $end
$var wire 1 " Y $end
$upscope $end
$scope module DFF $end
$var wire 1 # C $end
$var wire 1 $ D $end
$var reg 1 % Q $end
$upscope $end
$scope module DFFSR $end
$var wire 1 & C $end
$var wire 1 ' D $end
$var wire 1 ( R $end
$var wire 1 ) S $end
$var reg 1 * Q $end
$upscope $end
$scope module NAND $end
$var wire 1 + A $end
$var wire 1 , B $end
$var wire 1 - Y $end
$upscope $end
$scope module NOR $end
$var wire 1 . A $end
$var wire 1 / B $end
$var wire 1 0 Y $end
$upscope $end
$scope module NOT $end
$var wire 1 1 A $end
$var wire 1 2 Y $end
$upscope $end
$scope module testbench_bits8_32word $end
$var wire 1 3 valid_out_e $end
$var wire 1 4 valid_out_c $end
$var wire 1 5 valid_in $end
$var wire 1 6 reset $end
$var wire 1 7 clk_4f $end
$var wire 32 8 Data_out_e [31:0] $end
$var wire 32 9 Data_out_c [31:0] $end
$var wire 8 : Data_in [7:0] $end
$scope module bits8_32word_1 $end
$var wire 1 5 valid_in $end
$var wire 1 6 reset $end
$var wire 1 7 clk_4f_c $end
$var wire 8 ; Data_in [7:0] $end
$var reg 32 < Data_out_c [31:0] $end
$var reg 2 = contador [1:0] $end
$var reg 32 > memoria [31:0] $end
$var reg 1 ? valid $end
$var reg 1 4 valid_out_c $end
$upscope $end
$scope module bits8_32word_2 $end
$var wire 1 @ _10_ $end
$var wire 1 5 valid_in $end
$var wire 1 6 reset $end
$var wire 1 7 clk_4f_e $end
$var wire 8 A Data_in [7:0] $end
$var reg 32 B Data_out_e [31:0] $end
$var reg 32 C _00_ [31:0] $end
$var reg 2 D _01_ [1:0] $end
$var reg 32 E _02_ [31:0] $end
$var reg 1 F _03_ $end
$var reg 1 G _04_ $end
$var reg 32 H _05_ [31:0] $end
$var reg 2 I _06_ [1:0] $end
$var reg 32 J _07_ [31:0] $end
$var reg 1 K _08_ $end
$var reg 1 L _09_ $end
$var reg 2 M contador [1:0] $end
$var reg 32 N memoria [31:0] $end
$var reg 1 O valid $end
$var reg 1 3 valid_out_e $end
$upscope $end
$scope module probador_1 $end
$var wire 32 P Data_out_c [31:0] $end
$var wire 32 Q Data_out_e [31:0] $end
$var wire 1 4 valid_out_c $end
$var wire 1 3 valid_out_e $end
$var reg 8 R Data_in [7:0] $end
$var reg 2 S checker [1:0] $end
$var reg 1 7 clk_4f $end
$var reg 1 6 reset $end
$var reg 1 5 valid_in $end
$upscope $end
$upscope $end
$enddefinitions $end
#0
$dumpvars
b11 S
b0 R
b0 Q
b0 P
0O
b0 N
b11 M
0L
0K
b0 J
b0 I
b0 H
0G
0F
b0 E
b11 D
b0 C
b0 B
b0 A
1@
0?
b0 >
b11 =
b0 <
b0 ;
b0 :
b0 9
b0 8
07
06
05
04
03
z2
z1
x0
z/
z.
x-
z,
z+
x*
z)
z(
z'
z&
x%
z$
z#
z"
z!
$end
#1000
b0 D
b1 I
b11111111000000000000000000000000 J
0@
b0 =
b0 M
b11111111 :
b11111111 ;
b11111111 A
b11111111 R
15
16
17
#2000
07
#3000
b10 I
b11111111101010100000000000000000 J
b11111111000000000000000000000000 E
b1 D
b10101010 :
b10101010 ;
b10101010 A
b10101010 R
b11111111000000000000000000000000 N
b1 M
b1 =
b11111111000000000000000000000000 >
17
#4000
07
#5000
b11111111101010100000000000000000 E
b10 D
b11 I
b11111111101010101111111100000000 J
b10 =
b11111111101010100000000000000000 >
b11111111101010100000000000000000 N
b10 M
b11111111 :
b11111111 ;
b11111111 A
b11111111 R
17
#6000
07
#7000
b0 I
1K
b11111111101010101111111110111011 J
b11111111101010101111111100000000 E
b11 D
b10111011 :
b10111011 ;
b10111011 A
b10111011 R
b11111111101010101111111100000000 N
b11 M
b11 =
b11111111101010101111111100000000 >
17
#8000
07
#9000
1F
b11111111101010101111111110111011 E
b0 D
b1 I
b11011101000000000000000000000000 J
b11111111101010101111111110111011 H
1L
b0 =
1?
b11111111101010101111111110111011 >
1O
b11111111101010101111111110111011 N
b0 M
b11011101 :
b11011101 ;
b11011101 A
b11011101 R
17
#10000
07
#11000
b10 I
b11011101110011000000000000000000 J
b11111111101010101111111110111011 C
1G
b11011101000000000000000000000000 E
b1 D
b11001100 :
b11001100 ;
b11001100 A
b11001100 R
b11111111101010101111111110111011 8
b11111111101010101111111110111011 B
b11111111101010101111111110111011 Q
13
b11011101000000000000000000000000 N
b1 M
b1 =
b11011101000000000000000000000000 >
b11111111101010101111111110111011 9
b11111111101010101111111110111011 <
b11111111101010101111111110111011 P
14
17
#12000
07
#13000
b11011101110011000000000000000000 E
b10 D
b11 I
b11011101110011001101110100000000 J
b10 =
b11011101110011000000000000000000 >
b11011101110011000000000000000000 N
b10 M
b11011101 :
b11011101 ;
b11011101 A
b11011101 R
17
#14000
07
#15000
b0 I
b11011101110011001101110111101110 J
b11011101110011001101110100000000 E
b11 D
b11101110 :
b11101110 ;
b11101110 A
b11101110 R
b11011101110011001101110100000000 N
b11 M
b11 =
b11011101110011001101110100000000 >
17
#16000
07
#17000
b11011101110011001101110111101110 E
b0 D
b1 I
b11011101110011001101110111101110 H
b0 =
b11011101110011001101110111101110 >
b11011101110011001101110111101110 N
b0 M
05
17
#18000
07
#19000
b10 I
b11011101110011001101110111101110 C
b1 D
b11011101110011001101110111101110 8
b11011101110011001101110111101110 B
b11011101110011001101110111101110 Q
b1 M
b1 =
b11011101110011001101110111101110 9
b11011101110011001101110111101110 <
b11011101110011001101110111101110 P
17
#20000
07
#21000
b11 I
b10 D
b10 =
b10 M
17
#22000
07
#23000
b0 I
0K
b0 J
b11 D
b11 M
b11 =
17
#24000
07
#25000
0F
b0 E
b0 D
b1 I
b1000000000000000000000000 J
b0 H
0L
b0 =
0?
b0 >
0O
b0 N
b0 M
b1 :
b1 ;
b1 A
b1 R
15
17
#26000
07
#27000
b10 I
b1000011110000000000000000 J
b0 C
0G
b1000000000000000000000000 E
b1 D
b1111 :
b1111 ;
b1111 A
b1111 R
b0 8
b0 B
b0 Q
03
b1000000000000000000000000 N
b1 M
b1 =
b1000000000000000000000000 >
b0 9
b0 <
b0 P
04
17
#28000
07
#29000
b1000011110000000000000000 E
b10 D
b11 I
b1000011110000101000000000 J
b10 =
b1000011110000000000000000 >
b1000011110000000000000000 N
b10 M
b1010 :
b1010 ;
b1010 A
b1010 R
17
#30000
07
#31000
b0 I
1K
b1000011110000101000000011 J
b1000011110000101000000000 E
b11 D
b11 :
b11 ;
b11 A
b11 R
b1000011110000101000000000 N
b11 M
b11 =
b1000011110000101000000000 >
17
#32000
07
#33000
1F
b1000011110000101000000011 E
b0 D
b1 I
b1000011110000101000000011 H
1L
b0 =
1?
b1000011110000101000000011 >
1O
b1000011110000101000000011 N
b0 M
05
b0 :
b0 ;
b0 A
b0 R
17
#34000
07
#35000
b10 I
b1000011110000101000000011 C
1G
b1 D
b1000011110000101000000011 8
b1000011110000101000000011 B
b1000011110000101000000011 Q
13
b1 M
b1 =
b1000011110000101000000011 9
b1000011110000101000000011 <
b1000011110000101000000011 P
14
17
#36000
07
#37000
b11 I
b10 D
b10 =
b10 M
17
#38000
07
#39000
b0 I
0K
b0 J
b11 D
b11 M
b11 =
17
#40000
07
#41000
b1 I
b0 H
0L
0F
b0 E
b0 D
b0 =
0?
b0 >
0O
b0 N
b0 M
17
#42000
07
#43000
b10 I
b0 C
0G
b1 D
b0 8
b0 B
b0 Q
03
b1 M
b1 =
b0 9
b0 <
b0 P
04
17
#44000
07
#45000
b11 I
b10 D
b10 =
b10 M
17
