byte-un-striping/prueba_byte_un_striping.vcd
$date
	Wed Oct  6 16:52:59 2021
$end
$version
	Icarus Verilog
$end
$timescale
	1ps
$end
$scope module BUF $end
$var wire 1 ! A $end
$var wire 1 " Y $end
$upscope $end
$scope module DFF $end
$var wire 1 # C $end
$var wire 1 $ D $end
$var reg 1 % Q $end
$upscope $end
$scope module DFFSR $end
$var wire 1 & C $end
$var wire 1 ' D $end
$var wire 1 ( R $end
$var wire 1 ) S $end
$var reg 1 * Q $end
$upscope $end
$scope module NAND $end
$var wire 1 + A $end
$var wire 1 , B $end
$var wire 1 - Y $end
$upscope $end
$scope module NOR $end
$var wire 1 . A $end
$var wire 1 / B $end
$var wire 1 0 Y $end
$upscope $end
$scope module NOT $end
$var wire 1 1 A $end
$var wire 1 2 Y $end
$upscope $end
$scope module testbench_byte_un_striping $end
$var wire 1 3 valid_out_e $end
$var wire 1 4 valid_out_c $end
$var wire 1 5 valid_1 $end
$var wire 1 6 valid_0 $end
$var wire 1 7 reset $end
$var wire 32 8 lane_1 [31:0] $end
$var wire 32 9 lane_0 [31:0] $end
$var wire 1 : clk_2f $end
$var wire 32 ; Data_out_e [31:0] $end
$var wire 32 < Data_out_c [31:0] $end
$scope module byte_un_striping_1 $end
$var wire 1 5 valid_1 $end
$var wire 1 6 valid_0 $end
$var wire 1 7 reset $end
$var wire 32 = lane_1 [31:0] $end
$var wire 32 > lane_0 [31:0] $end
$var wire 1 : clk_2f_c $end
$var reg 32 ? Data_out_c [31:0] $end
$var reg 1 @ contador $end
$var reg 1 4 valid_out_c $end
$upscope $end
$scope module byte_un_striping_2 $end
$var wire 1 A _6_ $end
$var wire 1 5 valid_1 $end
$var wire 1 6 valid_0 $end
$var wire 1 7 reset $end
$var wire 32 B lane_1 [31:0] $end
$var wire 32 C lane_0 [31:0] $end
$var wire 1 : clk_2f_e $end
$var reg 32 D Data_out_e [31:0] $end
$var reg 32 E _0_ [31:0] $end
$var reg 1 F _1_ $end
$var reg 1 G _2_ $end
$var reg 32 H _3_ [31:0] $end
$var reg 1 I _4_ $end
$var reg 1 J _5_ $end
$var reg 1 K contador $end
$var reg 1 3 valid_out_e $end
$upscope $end
$scope module probador_1 $end
$var wire 32 L Data_out_c [31:0] $end
$var wire 32 M Data_out_e [31:0] $end
$var wire 1 4 valid_out_c $end
$var wire 1 3 valid_out_e $end
$var reg 2 N checker [1:0] $end
$var reg 1 : clk_2f $end
$var reg 32 O lane_0 [31:0] $end
$var reg 32 P lane_1 [31:0] $end
$var reg 1 7 reset $end
$var reg 1 6 valid_0 $end
$var reg 1 5 valid_1 $end
$upscope $end
$upscope $end
$enddefinitions $end
#0
$dumpvars
b0 P
b0 O
b11 N
b0 M
b0 L
1K
0J
0I
b0 H
0G
1F
b0 E
b0 D
b0 C
b0 B
1A
1@
b0 ?
b0 >
b0 =
b0 <
b0 ;
0:
b0 9
b0 8
07
06
05
04
03
z2
z1
x0
z/
z.
x-
z,
z+
x*
z)
z(
z'
z&
x%
z$
z#
z"
z!
$end
#1000
0F
b11111111111111111111111111111111 H
1J
1I
0A
0@
0K
b11111111111111111111111111111111 9
b11111111111111111111111111111111 >
b11111111111111111111111111111111 C
b11111111111111111111111111111111 O
16
17
1:
#2000
0:
#3000
b11101110111011101110111011101110 H
0I
1F
b11111111111111111111111111111111 E
1G
b11101110111011101110111011101110 8
b11101110111011101110111011101110 =
b11101110111011101110111011101110 B
b11101110111011101110111011101110 P
15
1K
b11111111111111111111111111111111 ;
b11111111111111111111111111111111 D
b11111111111111111111111111111111 M
13
b11111111111111111111111111111111 <
b11111111111111111111111111111111 ?
b11111111111111111111111111111111 L
14
1@
1:
#4000
0:
#5000
0F
b11101110111011101110111011101110 E
b11011101110111011101110111011101 H
1I
b11101110111011101110111011101110 <
b11101110111011101110111011101110 ?
b11101110111011101110111011101110 L
0@
0K
b11101110111011101110111011101110 ;
b11101110111011101110111011101110 D
b11101110111011101110111011101110 M
b11011101110111011101110111011101 9
b11011101110111011101110111011101 >
b11011101110111011101110111011101 C
b11011101110111011101110111011101 O
1:
#6000
0:
#7000
b11001100110011001100110011001100 H
0I
1F
b11011101110111011101110111011101 E
b11001100110011001100110011001100 8
b11001100110011001100110011001100 =
b11001100110011001100110011001100 B
b11001100110011001100110011001100 P
1K
b11011101110111011101110111011101 ;
b11011101110111011101110111011101 D
b11011101110111011101110111011101 M
b11011101110111011101110111011101 <
b11011101110111011101110111011101 ?
b11011101110111011101110111011101 L
1@
1:
#8000
0:
#9000
0F
b11001100110011001100110011001100 E
b0 H
0J
1I
b11001100110011001100110011001100 <
b11001100110011001100110011001100 ?
b11001100110011001100110011001100 L
0@
0K
b11001100110011001100110011001100 ;
b11001100110011001100110011001100 D
b11001100110011001100110011001100 M
b0 9
b0 >
b0 C
b0 O
06
1:
#10000
0:
#11000
0I
1F
b0 E
0G
b0 8
b0 =
b0 B
b0 P
05
1K
b0 ;
b0 D
b0 M
03
b0 <
b0 ?
b0 L
04
1@
1:
#12000
0:
#13000
0F
b11 H
1J
1I
0@
0K
b11 9
b11 >
b11 C
b11 O
16
1:
#14000
0:
#15000
b100 H
0I
1F
b11 E
1G
b100 8
b100 =
b100 B
b100 P
15
1K
b11 ;
b11 D
b11 M
13
b11 <
b11 ?
b11 L
14
1@
1:
#16000
0:
#17000
0F
b100 E
b0 H
0J
1I
b100 <
b100 ?
b100 L
0@
0K
b100 ;
b100 D
b100 M
b0 9
b0 >
b0 C
b0 O
06
1:
#18000
0:
#19000
0I
1F
b0 E
0G
b0 8
b0 =
b0 B
b0 P
05
1K
b0 ;
b0 D
b0 M
03
b0 <
b0 ?
b0 L
04
1@
1:
#20000
0:
#21000
0F
b10101010101010101010101010101010 H
1J
1I
0@
0K
b10101010101010101010101010101010 9
b10101010101010101010101010101010 >
b10101010101010101010101010101010 C
b10101010101010101010101010101010 O
16
1:
#22000
0:
#23000
b10011001100110011001100110011001 H
0I
1F
b10101010101010101010101010101010 E
1G
b10011001100110011001100110011001 8
b10011001100110011001100110011001 =
b10011001100110011001100110011001 B
b10011001100110011001100110011001 P
15
1K
b10101010101010101010101010101010 ;
b10101010101010101010101010101010 D
b10101010101010101010101010101010 M
13
b10101010101010101010101010101010 <
b10101010101010101010101010101010 ?
b10101010101010101010101010101010 L
14
1@
1:
#24000
0:
#25000
0F
b10011001100110011001100110011001 E
b0 H
0J
1I
b10011001100110011001100110011001 <
b10011001100110011001100110011001 ?
b10011001100110011001100110011001 L
0@
0K
b10011001100110011001100110011001 ;
b10011001100110011001100110011001 D
b10011001100110011001100110011001 M
b10001000100010001000100010001 9
b10001000100010001000100010001 >
b10001000100010001000100010001 C
b10001000100010001000100010001 O
06
1:
#26000
0:
#27000
0I
1F
b0 E
0G
b0 8
b0 =
b0 B
b0 P
05
1K
b0 ;
b0 D
b0 M
03
b0 <
b0 ?
b0 L
04
1@
1:
#28000
0:
#29000
0F
b111 H
1J
1I
0@
0K
b111 9
b111 >
b111 C
b111 O
16
1:
#30000
0:
#31000
b1000 H
0I
1F
b111 E
1G
b1000 8
b1000 =
b1000 B
b1000 P
15
1K
b111 ;
b111 D
b111 M
13
b111 <
b111 ?
b111 L
14
1@
1:
#32000
0:
#33000
0F
b1000 E
b0 H
0J
1I
b1000 <
b1000 ?
b1000 L
0@
0K
b1000 ;
b1000 D
b1000 M
b0 9
b0 >
b0 C
b0 O
06
1:
#34000
0:
#35000
b100010001000100010001000100010 H
1J
0I
1F
b0 E
0G
b100010001000100010001000100010 8
b100010001000100010001000100010 =
b100010001000100010001000100010 B
b100010001000100010001000100010 P
1K
b0 ;
b0 D
b0 M
03
b0 <
b0 ?
b0 L
04
1@
1:
#36000
0:
#37000
b0 H
0J
1I
0F
b100010001000100010001000100010 E
1G
b100010001000100010001000100010 <
b100010001000100010001000100010 ?
b100010001000100010001000100010 L
14
0@
0K
b100010001000100010001000100010 ;
b100010001000100010001000100010 D
b100010001000100010001000100010 M
13
1:
#38000
0:
#39000
b100010001000100010001000100010 H
1J
0I
1F
b0 E
0G
1K
b0 ;
b0 D
b0 M
03
b0 <
b0 ?
b0 L
04
1@
1:
#40000
0:
#41000
b0 H
0J
1I
0F
b100010001000100010001000100010 E
1G
b100010001000100010001000100010 <
b100010001000100010001000100010 ?
b100010001000100010001000100010 L
14
0@
0K
b100010001000100010001000100010 ;
b100010001000100010001000100010 D
b100010001000100010001000100010 M
13
1:
