ProyectoFinal/word32-8bits/prueba_word32_8bits.vcd
$date
	Wed Oct  6 17:18:18 2021
$end
$version
	Icarus Verilog
$end
$timescale
	1ps
$end
$scope module BUF $end
$var wire 1 ! A $end
$var wire 1 " Y $end
$upscope $end
$scope module DFF $end
$var wire 1 # C $end
$var wire 1 $ D $end
$var reg 1 % Q $end
$upscope $end
$scope module DFFSR $end
$var wire 1 & C $end
$var wire 1 ' D $end
$var wire 1 ( R $end
$var wire 1 ) S $end
$var reg 1 * Q $end
$upscope $end
$scope module NAND $end
$var wire 1 + A $end
$var wire 1 , B $end
$var wire 1 - Y $end
$upscope $end
$scope module NOR $end
$var wire 1 . A $end
$var wire 1 / B $end
$var wire 1 0 Y $end
$upscope $end
$scope module NOT $end
$var wire 1 1 A $end
$var wire 1 2 Y $end
$upscope $end
$scope module testbench_word32_8bits $end
$var wire 1 3 valid_out_e $end
$var wire 1 4 valid_out_c $end
$var wire 1 5 valid_in $end
$var wire 1 6 reset $end
$var wire 1 7 clk_4f $end
$var wire 8 8 Data_out_e [7:0] $end
$var wire 8 9 Data_out_c [7:0] $end
$var wire 32 : Data_in [31:0] $end
$scope module probador_1 $end
$var wire 1 3 valid_out_e $end
$var wire 1 4 valid_out_c $end
$var wire 8 ; Data_out_e [7:0] $end
$var wire 8 < Data_out_c [7:0] $end
$var reg 32 = Data_in [31:0] $end
$var reg 2 > checker [1:0] $end
$var reg 1 7 clk_4f $end
$var reg 1 6 reset $end
$var reg 1 5 valid_in $end
$upscope $end
$scope module word32_8bits_1 $end
$var wire 32 ? Data_in [31:0] $end
$var wire 1 7 clk_4f_c $end
$var wire 1 6 reset $end
$var wire 1 5 valid_in $end
$var reg 8 @ Data_out_c [7:0] $end
$var reg 2 A contador [1:0] $end
$var reg 1 4 valid_out_c $end
$upscope $end
$scope module word32_8bits_2 $end
$var wire 32 B Data_in [31:0] $end
$var wire 1 C _6_ $end
$var wire 1 7 clk_4f_e $end
$var wire 1 6 reset $end
$var wire 1 5 valid_in $end
$var reg 8 D Data_out_e [7:0] $end
$var reg 8 E _0_ [7:0] $end
$var reg 2 F _1_ [1:0] $end
$var reg 1 G _2_ $end
$var reg 8 H _3_ [7:0] $end
$var reg 2 I _4_ [1:0] $end
$var reg 1 J _5_ $end
$var reg 2 K contador [1:0] $end
$var reg 1 3 valid_out_e $end
$upscope $end
$upscope $end
$enddefinitions $end
#0
$dumpvars
b0 K
0J
b0 I
b0 H
0G
b0 F
b0 E
b0 D
1C
b0 B
b0 A
b0 @
b0 ?
b11 >
b0 =
b0 <
b0 ;
b0 :
b0 9
b0 8
07
06
05
04
03
z2
z1
x0
z/
z.
x-
z,
z+
x*
z)
z(
z'
z&
x%
z$
z#
z"
z!
$end
#1000
1J
b1 I
b11111111 H
0C
b11111111101010101111111110111011 :
b11111111101010101111111110111011 =
b11111111101010101111111110111011 ?
b11111111101010101111111110111011 B
15
16
17
#2000
07
#3000
b10 I
b10101010 H
b11111111 E
1G
b1 F
b11111111 8
b11111111 ;
b11111111 D
13
b1 K
14
b1 A
b11111111 9
b11111111 <
b11111111 @
17
#4000
07
#5000
b11 I
b11111111 H
b10101010 E
b10 F
b10 A
b10101010 9
b10101010 <
b10101010 @
b10101010 8
b10101010 ;
b10101010 D
b10 K
17
#6000
07
#7000
b0 I
b10111011 H
b11111111 E
b11 F
b11111111 8
b11111111 ;
b11111111 D
b11 K
b11 A
b11111111 9
b11111111 <
b11111111 @
17
#8000
07
#9000
b10111011 E
b0 F
b1 I
b11011101 H
b0 A
b10111011 9
b10111011 <
b10111011 @
b10111011 8
b10111011 ;
b10111011 D
b0 K
b11011101110011001101110111101110 :
b11011101110011001101110111101110 =
b11011101110011001101110111101110 ?
b11011101110011001101110111101110 B
17
#10000
07
#11000
b10 I
b11001100 H
b11011101 E
b1 F
b11011101 8
b11011101 ;
b11011101 D
b1 K
b1 A
b11011101 9
b11011101 <
b11011101 @
17
#12000
07
#13000
b11 I
b11011101 H
b11001100 E
b10 F
b10 A
b11001100 9
b11001100 <
b11001100 @
b11001100 8
b11001100 ;
b11001100 D
b10 K
17
#14000
07
#15000
b0 I
b11101110 H
b11011101 E
b11 F
b11011101 8
b11011101 ;
b11011101 D
b11 K
b11 A
b11011101 9
b11011101 <
b11011101 @
17
#16000
07
#17000
b11101110 E
b0 F
b0 H
0J
b0 A
b11101110 9
b11101110 <
b11101110 @
b11101110 8
b11101110 ;
b11101110 D
b0 K
05
17
#18000
07
#19000
b0 E
0G
b0 8
b0 ;
b0 D
03
b0 9
b0 <
b0 @
04
17
#20000
07
#21000
17
#22000
07
#23000
17
#24000
07
#25000
1J
b1 I
b1 H
b1000011110000101000000011 :
b1000011110000101000000011 =
b1000011110000101000000011 ?
b1000011110000101000000011 B
15
17
#26000
07
#27000
b10 I
b1111 H
b1 E
1G
b1 F
b1 8
b1 ;
b1 D
13
b1 K
14
b1 A
b1 9
b1 <
b1 @
17
#28000
07
#29000
b11 I
b1010 H
b1111 E
b10 F
b10 A
b1111 9
b1111 <
b1111 @
b1111 8
b1111 ;
b1111 D
b10 K
17
#30000
07
#31000
b0 I
b11 H
b1010 E
b11 F
b1010 8
b1010 ;
b1010 D
b11 K
b11 A
b1010 9
b1010 <
b1010 @
17
#32000
07
#33000
b11 E
b0 F
b0 H
0J
b0 A
b11 9
b11 <
b11 @
b11 8
b11 ;
b11 D
b0 K
05
b0 :
b0 =
b0 ?
b0 B
17
#34000
07
#35000
b0 E
0G
b0 8
b0 ;
b0 D
03
b0 9
b0 <
b0 @
04
17
