ProyectoFinal/phy/prueba_phy.vcd
$date
	Tue Oct 19 15:33:01 2021
$end
$version
	Icarus Verilog
$end
$timescale
	1ps
$end
$scope module BUF $end
$var wire 1 ! A $end
$var wire 1 " Y $end
$upscope $end
$scope module DFF $end
$var wire 1 # C $end
$var wire 1 $ D $end
$var reg 1 % Q $end
$upscope $end
$scope module DFFSR $end
$var wire 1 & C $end
$var wire 1 ' D $end
$var wire 1 ( R $end
$var wire 1 ) S $end
$var reg 1 * Q $end
$upscope $end
$scope module NAND $end
$var wire 1 + A $end
$var wire 1 , B $end
$var wire 1 - Y $end
$upscope $end
$scope module NOR $end
$var wire 1 . A $end
$var wire 1 / B $end
$var wire 1 0 Y $end
$upscope $end
$scope module NOT $end
$var wire 1 1 A $end
$var wire 1 2 Y $end
$upscope $end
$scope module testbench_phy $end
$var wire 1 3 valid_out_e $end
$var wire 1 4 valid_out_c $end
$var wire 1 5 valid_in $end
$var wire 1 6 reset $end
$var wire 1 7 clk_32f $end
$var wire 32 8 Data_out_e [31:0] $end
$var wire 32 9 Data_out_c [31:0] $end
$var wire 32 : Data_in [31:0] $end
$scope module phy_c1 $end
$var wire 1 5 valid_in $end
$var wire 1 ; valid $end
$var wire 1 6 reset $end
$var wire 1 < clk_f_c $end
$var wire 1 = clk_4f_c $end
$var wire 1 7 clk_32f $end
$var wire 1 > clk_2f_c $end
$var wire 1 ? Data_out_1bit_1_c $end
$var wire 1 @ Data_out_1bit_0_c $end
$var wire 32 A Data_in [31:0] $end
$var wire 32 B Data [31:0] $end
$var reg 32 C Data_out_c [31:0] $end
$var reg 1 4 valid_out_c $end
$scope module clk_generador $end
$var wire 1 6 reset $end
$var wire 1 7 clk_32f $end
$var reg 1 > clk_2f_c $end
$var reg 1 = clk_4f_c $end
$var reg 1 < clk_f_c $end
$var reg 4 D conteo [3:0] $end
$var reg 3 E conteo_2 [2:0] $end
$var reg 2 F conteo_4 [1:0] $end
$upscope $end
$scope module phy_rx_c00 $end
$var wire 1 > clk_2f_c $end
$var wire 1 = clk_4f_c $end
$var wire 1 G valid_out_1_c $end
$var wire 1 H valid_out_0_c $end
$var wire 1 I valid_c $end
$var wire 1 J valid_1_c $end
$var wire 1 K valid_0_c $end
$var wire 1 6 reset $end
$var wire 32 L lane_1_c [31:0] $end
$var wire 32 M lane_0_c [31:0] $end
$var wire 1 7 clk_32f $end
$var wire 8 N Data_out_1_c [7:0] $end
$var wire 8 O Data_out_0_c [7:0] $end
$var wire 1 ? Data_in_1 $end
$var wire 1 @ Data_in_0 $end
$var wire 32 P Data_c [31:0] $end
$var reg 32 Q Data_out_c [31:0] $end
$var reg 1 ; valid_out_c $end
$scope module bits8_32word_1 $end
$var wire 1 = clk_4f_c $end
$var wire 1 H valid_in $end
$var wire 1 6 reset $end
$var wire 8 R Data_in [7:0] $end
$var reg 32 S Data_out_c [31:0] $end
$var reg 2 T contador [1:0] $end
$var reg 1 U down $end
$var reg 32 V memoria [31:0] $end
$var reg 1 W valid $end
$var reg 1 K valid_out_c $end
$upscope $end
$scope module bits8_32word_2 $end
$var wire 1 = clk_4f_c $end
$var wire 1 G valid_in $end
$var wire 1 6 reset $end
$var wire 8 X Data_in [7:0] $end
$var reg 32 Y Data_out_c [31:0] $end
$var reg 2 Z contador [1:0] $end
$var reg 1 [ down $end
$var reg 32 \ memoria [31:0] $end
$var reg 1 ] valid $end
$var reg 1 J valid_out_c $end
$upscope $end
$scope module byte_un_striping_1 $end
$var wire 1 > clk_2f_c $end
$var wire 32 ^ lane_0 [31:0] $end
$var wire 32 _ lane_1 [31:0] $end
$var wire 1 K valid_0 $end
$var wire 1 J valid_1 $end
$var wire 1 6 reset $end
$var reg 32 ` Data_out_c [31:0] $end
$var reg 1 a contador $end
$var reg 1 I valid_out_c $end
$upscope $end
$scope module serial_parallel_1 $end
$var wire 1 6 reset $end
$var wire 1 7 clk_32f $end
$var wire 1 @ Data_in $end
$var reg 2 b BC_count [1:0] $end
$var reg 8 c Data_out_c [7:0] $end
$var reg 1 d active $end
$var reg 3 e contador [2:0] $end
$var reg 8 f memoria [7:0] $end
$var reg 1 H valid_out_c $end
$upscope $end
$scope module serial_parallel_2 $end
$var wire 1 6 reset $end
$var wire 1 7 clk_32f $end
$var wire 1 ? Data_in $end
$var reg 2 g BC_count [1:0] $end
$var reg 8 h Data_out_c [7:0] $end
$var reg 1 i active $end
$var reg 3 j contador [2:0] $end
$var reg 8 k memoria [7:0] $end
$var reg 1 G valid_out_c $end
$upscope $end
$upscope $end
$scope module phy_tx_c00 $end
$var wire 1 > clk_2f_c $end
$var wire 1 = clk_4f_c $end
$var wire 1 l valid_out_1_c $end
$var wire 1 m valid_out_0_c $end
$var wire 1 5 valid_in $end
$var wire 1 n valid_1_c $end
$var wire 1 o valid_0_c $end
$var wire 1 6 reset $end
$var wire 32 p lane_1_c [31:0] $end
$var wire 32 q lane_0_c [31:0] $end
$var wire 1 7 clk_32f $end
$var wire 1 r Out_1_c $end
$var wire 1 s Out_0_c $end
$var wire 8 t Data_out_1_c [7:0] $end
$var wire 8 u Data_out_0_c [7:0] $end
$var wire 32 v Data_in [31:0] $end
$var reg 1 @ Data_out_1bit_0_c $end
$var reg 1 ? Data_out_1bit_1_c $end
$scope module byte_striping_1 $end
$var wire 1 > clk_2f_c $end
$var wire 1 5 valid_in $end
$var wire 1 6 reset $end
$var wire 32 w Data_in [31:0] $end
$var reg 1 x contador $end
$var reg 32 y lane_0_c [31:0] $end
$var reg 32 z lane_1_c [31:0] $end
$var reg 1 o valid_0_c $end
$var reg 1 n valid_1_c $end
$upscope $end
$scope module parallel_serial_c1 $end
$var wire 1 m valid_in $end
$var wire 1 6 reset $end
$var wire 1 7 clk_32f $end
$var wire 8 { Data_in [7:0] $end
$var reg 1 s Data_out_c $end
$var reg 3 | contador [2:0] $end
$var reg 8 } data2send [7:0] $end
$upscope $end
$scope module parallel_serial_c2 $end
$var wire 1 l valid_in $end
$var wire 1 6 reset $end
$var wire 1 7 clk_32f $end
$var wire 8 ~ Data_in [7:0] $end
$var reg 1 r Data_out_c $end
$var reg 3 !" contador [2:0] $end
$var reg 8 "" data2send [7:0] $end
$upscope $end
$scope module word32_8bits_1 $end
$var wire 32 #" Data_in [31:0] $end
$var wire 1 = clk_4f_c $end
$var wire 1 o valid_in $end
$var wire 1 6 reset $end
$var reg 8 $" Data_out_c [7:0] $end
$var reg 2 %" contador [1:0] $end
$var reg 1 m valid_out_c $end
$upscope $end
$scope module word32_8bits_2 $end
$var wire 32 &" Data_in [31:0] $end
$var wire 1 = clk_4f_c $end
$var wire 1 n valid_in $end
$var wire 1 6 reset $end
$var reg 8 '" Data_out_c [7:0] $end
$var reg 2 (" contador [1:0] $end
$var reg 1 l valid_out_c $end
$upscope $end
$upscope $end
$upscope $end
$scope module phy_e1 $end
$var wire 1 5 valid_in $end
$var wire 1 )" valid $end
$var wire 1 6 reset $end
$var wire 1 *" clk_f_c $end
$var wire 1 +" clk_4f_e $end
$var wire 1 7 clk_32f $end
$var wire 1 ," clk_2f_e $end
$var wire 1 -" Data_out_1bit_1_c $end
$var wire 1 ." Data_out_1bit_0_c $end
$var wire 32 /" Data_in [31:0] $end
$var wire 32 0" Data [31:0] $end
$var reg 32 1" Data_out_e [31:0] $end
$var reg 32 2" _0_ [31:0] $end
$var reg 1 3" _1_ $end
$var reg 1 3 valid_out_e $end
$scope module clk_generador $end
$var wire 1 4" _12_ $end
$var wire 1 6 reset $end
$var wire 1 7 clk_32f $end
$var reg 1 5" _00_ $end
$var reg 1 6" _01_ $end
$var reg 1 7" _02_ $end
$var reg 4 8" _03_ [3:0] $end
$var reg 3 9" _04_ [2:0] $end
$var reg 2 :" _05_ [1:0] $end
$var reg 1 ;" _06_ $end
$var reg 1 <" _07_ $end
$var reg 1 =" _08_ $end
$var reg 4 >" _09_ [3:0] $end
$var reg 3 ?" _10_ [2:0] $end
$var reg 2 @" _11_ [1:0] $end
$var reg 1 ," clk_2f_e $end
$var reg 1 +" clk_4f_e $end
$var reg 1 *" clk_f_c $end
$var reg 4 A" conteo [3:0] $end
$var reg 3 B" conteo_2 [2:0] $end
$var reg 2 C" conteo_4 [1:0] $end
$upscope $end
$scope module phy_rx_c00 $end
$var wire 1 ," clk_2f_e $end
$var wire 1 +" clk_4f_e $end
$var wire 1 D" valid_out_1_c $end
$var wire 1 E" valid_out_0_c $end
$var wire 1 F" valid_c $end
$var wire 1 G" valid_1_c $end
$var wire 1 H" valid_0_c $end
$var wire 1 6 reset $end
$var wire 32 I" lane_1_c [31:0] $end
$var wire 32 J" lane_0_c [31:0] $end
$var wire 1 7 clk_32f $end
$var wire 8 K" Data_out_1_c [7:0] $end
$var wire 8 L" Data_out_0_c [7:0] $end
$var wire 1 -" Data_in_1 $end
$var wire 1 ." Data_in_0 $end
$var wire 32 M" Data_c [31:0] $end
$var reg 32 N" Data_out_e [31:0] $end
$var reg 32 O" _0_ [31:0] $end
$var reg 1 P" _1_ $end
$var reg 1 )" valid_out_e $end
$scope module bits8_32word_1 $end
$var wire 1 Q" _12_ $end
$var wire 1 +" clk_4f_e $end
$var wire 1 E" valid_in $end
$var wire 1 6 reset $end
$var wire 8 R" Data_in [7:0] $end
$var reg 32 S" Data_out_e [31:0] $end
$var reg 32 T" _00_ [31:0] $end
$var reg 2 U" _01_ [1:0] $end
$var reg 1 V" _02_ $end
$var reg 32 W" _03_ [31:0] $end
$var reg 1 X" _04_ $end
$var reg 1 Y" _05_ $end
$var reg 32 Z" _06_ [31:0] $end
$var reg 2 [" _07_ [1:0] $end
$var reg 1 \" _08_ $end
$var reg 32 ]" _09_ [31:0] $end
$var reg 1 ^" _10_ $end
$var reg 1 _" _11_ $end
$var reg 2 `" contador [1:0] $end
$var reg 1 a" down $end
$var reg 32 b" memoria [31:0] $end
$var reg 1 c" valid $end
$var reg 1 H" valid_out_e $end
$upscope $end
$scope module bits8_32word_2 $end
$var wire 1 d" _12_ $end
$var wire 1 +" clk_4f_e $end
$var wire 1 D" valid_in $end
$var wire 1 6 reset $end
$var wire 8 e" Data_in [7:0] $end
$var reg 32 f" Data_out_e [31:0] $end
$var reg 32 g" _00_ [31:0] $end
$var reg 2 h" _01_ [1:0] $end
$var reg 1 i" _02_ $end
$var reg 32 j" _03_ [31:0] $end
$var reg 1 k" _04_ $end
$var reg 1 l" _05_ $end
$var reg 32 m" _06_ [31:0] $end
$var reg 2 n" _07_ [1:0] $end
$var reg 1 o" _08_ $end
$var reg 32 p" _09_ [31:0] $end
$var reg 1 q" _10_ $end
$var reg 1 r" _11_ $end
$var reg 2 s" contador [1:0] $end
$var reg 1 t" down $end
$var reg 32 u" memoria [31:0] $end
$var reg 1 v" valid $end
$var reg 1 G" valid_out_e $end
$upscope $end
$scope module byte_un_striping_1 $end
$var wire 1 w" _6_ $end
$var wire 1 ," clk_2f_e $end
$var wire 32 x" lane_0 [31:0] $end
$var wire 32 y" lane_1 [31:0] $end
$var wire 1 H" valid_0 $end
$var wire 1 G" valid_1 $end
$var wire 1 6 reset $end
$var reg 32 z" Data_out_e [31:0] $end
$var reg 32 {" _0_ [31:0] $end
$var reg 1 |" _1_ $end
$var reg 1 }" _2_ $end
$var reg 32 ~" _3_ [31:0] $end
$var reg 1 !# _4_ $end
$var reg 1 "# _5_ $end
$var reg 1 ## contador $end
$var reg 1 F" valid_out_e $end
$upscope $end
$scope module serial_parallel_1 $end
$var wire 1 $# _16_ $end
$var wire 1 %# _17_ $end
$var wire 1 &# _18_ $end
$var wire 1 '# _19_ $end
$var wire 1 6 reset $end
$var wire 1 7 clk_32f $end
$var wire 8 (# _15_ [7:0] $end
$var wire 2 )# _13_ [1:0] $end
$var wire 4 *# _12_ [3:0] $end
$var wire 1 ." Data_in $end
$var reg 2 +# BC_count [1:0] $end
$var reg 8 ,# Data_out_e [7:0] $end
$var reg 2 -# _00_ [1:0] $end
$var reg 8 .# _01_ [7:0] $end
$var reg 1 /# _02_ $end
$var reg 3 0# _03_ [2:0] $end
$var reg 8 1# _04_ [7:0] $end
$var reg 1 2# _05_ $end
$var reg 2 3# _06_ [1:0] $end
$var reg 8 4# _07_ [7:0] $end
$var reg 1 5# _08_ $end
$var reg 3 6# _09_ [2:0] $end
$var reg 8 7# _10_ [7:0] $end
$var reg 1 8# _11_ $end
$var reg 1 9# active $end
$var reg 3 :# contador [2:0] $end
$var reg 8 ;# memoria [7:0] $end
$var reg 1 E" valid_out_e $end
$upscope $end
$scope module serial_parallel_2 $end
$var wire 1 <# _16_ $end
$var wire 1 =# _17_ $end
$var wire 1 ># _18_ $end
$var wire 1 ?# _19_ $end
$var wire 1 6 reset $end
$var wire 1 7 clk_32f $end
$var wire 8 @# _15_ [7:0] $end
$var wire 2 A# _13_ [1:0] $end
$var wire 4 B# _12_ [3:0] $end
$var wire 1 -" Data_in $end
$var reg 2 C# BC_count [1:0] $end
$var reg 8 D# Data_out_e [7:0] $end
$var reg 2 E# _00_ [1:0] $end
$var reg 8 F# _01_ [7:0] $end
$var reg 1 G# _02_ $end
$var reg 3 H# _03_ [2:0] $end
$var reg 8 I# _04_ [7:0] $end
$var reg 1 J# _05_ $end
$var reg 2 K# _06_ [1:0] $end
$var reg 8 L# _07_ [7:0] $end
$var reg 1 M# _08_ $end
$var reg 3 N# _09_ [2:0] $end
$var reg 8 O# _10_ [7:0] $end
$var reg 1 P# _11_ $end
$var reg 1 Q# active $end
$var reg 3 R# contador [2:0] $end
$var reg 8 S# memoria [7:0] $end
$var reg 1 D" valid_out_e $end
$upscope $end
$upscope $end
$scope module phy_tx_c00 $end
$var wire 1 ," clk_2f_e $end
$var wire 1 +" clk_4f_e $end
$var wire 1 T# valid_out_1_c $end
$var wire 1 U# valid_out_0_c $end
$var wire 1 5 valid_in $end
$var wire 1 V# valid_1_c $end
$var wire 1 W# valid_0_c $end
$var wire 1 6 reset $end
$var wire 32 X# lane_1_c [31:0] $end
$var wire 32 Y# lane_0_c [31:0] $end
$var wire 1 7 clk_32f $end
$var wire 1 Z# Out_1_c $end
$var wire 1 [# Out_0_c $end
$var wire 8 \# Data_out_1_c [7:0] $end
$var wire 8 ]# Data_out_0_c [7:0] $end
$var wire 32 ^# Data_in [31:0] $end
$var reg 1 ." Data_out_1bit_0_c $end
$var reg 1 -" Data_out_1bit_1_c $end
$var reg 1 _# _0_ $end
$var reg 1 `# _1_ $end
$scope module byte_striping_1 $end
$var wire 1 a# _10_ $end
$var wire 1 b# _11_ $end
$var wire 1 ," clk_2f_e $end
$var wire 1 5 valid_in $end
$var wire 1 6 reset $end
$var wire 32 c# Data_in [31:0] $end
$var reg 1 d# _00_ $end
$var reg 32 e# _01_ [31:0] $end
$var reg 32 f# _02_ [31:0] $end
$var reg 1 g# _03_ $end
$var reg 1 h# _04_ $end
$var reg 1 i# _05_ $end
$var reg 32 j# _06_ [31:0] $end
$var reg 32 k# _07_ [31:0] $end
$var reg 1 l# _08_ $end
$var reg 1 m# _09_ $end
$var reg 1 n# contador $end
$var reg 32 o# lane_0_c [31:0] $end
$var reg 32 p# lane_1_c [31:0] $end
$var reg 1 W# valid_0_c $end
$var reg 1 V# valid_1_c $end
$upscope $end
$scope module parallel_serial_e1 $end
$var wire 1 q# _6_ $end
$var wire 1 U# valid_in $end
$var wire 1 6 reset $end
$var wire 1 7 clk_32f $end
$var wire 8 r# Data_in [7:0] $end
$var reg 1 [# Data_out_e $end
$var reg 1 s# _0_ $end
$var reg 3 t# _1_ [2:0] $end
$var reg 8 u# _2_ [7:0] $end
$var reg 1 v# _3_ $end
$var reg 3 w# _4_ [2:0] $end
$var reg 8 x# _5_ [7:0] $end
$var reg 3 y# contador [2:0] $end
$var reg 8 z# data2send [7:0] $end
$upscope $end
$scope module parallel_serial_e2 $end
$var wire 1 {# _6_ $end
$var wire 1 T# valid_in $end
$var wire 1 6 reset $end
$var wire 1 7 clk_32f $end
$var wire 8 |# Data_in [7:0] $end
$var reg 1 Z# Data_out_e $end
$var reg 1 }# _0_ $end
$var reg 3 ~# _1_ [2:0] $end
$var reg 8 !$ _2_ [7:0] $end
$var reg 1 "$ _3_ $end
$var reg 3 #$ _4_ [2:0] $end
$var reg 8 $$ _5_ [7:0] $end
$var reg 3 %$ contador [2:0] $end
$var reg 8 &$ data2send [7:0] $end
$upscope $end
$scope module word32_8bits_1 $end
$var wire 32 '$ Data_in [31:0] $end
$var wire 1 ($ _6_ $end
$var wire 1 +" clk_4f_e $end
$var wire 1 W# valid_in $end
$var wire 1 6 reset $end
$var reg 8 )$ Data_out_e [7:0] $end
$var reg 8 *$ _0_ [7:0] $end
$var reg 2 +$ _1_ [1:0] $end
$var reg 1 ,$ _2_ $end
$var reg 8 -$ _3_ [7:0] $end
$var reg 2 .$ _4_ [1:0] $end
$var reg 1 /$ _5_ $end
$var reg 2 0$ contador [1:0] $end
$var reg 1 U# valid_out_e $end
$upscope $end
$scope module word32_8bits_2 $end
$var wire 32 1$ Data_in [31:0] $end
$var wire 1 2$ _6_ $end
$var wire 1 +" clk_4f_e $end
$var wire 1 V# valid_in $end
$var wire 1 6 reset $end
$var reg 8 3$ Data_out_e [7:0] $end
$var reg 8 4$ _0_ [7:0] $end
$var reg 2 5$ _1_ [1:0] $end
$var reg 1 6$ _2_ $end
$var reg 8 7$ _3_ [7:0] $end
$var reg 2 8$ _4_ [1:0] $end
$var reg 1 9$ _5_ $end
$var reg 2 :$ contador [1:0] $end
$var reg 1 T# valid_out_e $end
$upscope $end
$upscope $end
$upscope $end
$scope module probador_phy $end
$var wire 32 ;$ Data_out_c [31:0] $end
$var wire 32 <$ Data_out_e [31:0] $end
$var wire 1 4 valid_out_c $end
$var wire 1 3 valid_out_e $end
$var reg 32 =$ Data_in [31:0] $end
$var reg 2 >$ checker [1:0] $end
$var reg 1 7 clk_32f $end
$var reg 1 6 reset $end
$var reg 1 5 valid_in $end
$upscope $end
$upscope $end
$enddefinitions $end
#0
$dumpvars
b11 >$
b0 =$
b0 <$
b0 ;$
b0 :$
09$
b0 8$
b0 7$
06$
b0 5$
b0 4$
b0 3$
12$
b0 1$
b0 0$
0/$
b0 .$
b0 -$
0,$
b0 +$
b0 *$
b0 )$
1($
b0 '$
b10111100 &$
b0 %$
b10111100 $$
b1 #$
1"$
b10111100 !$
b0 ~#
0}#
b0 |#
1{#
b10111100 z#
b0 y#
b10111100 x#
b1 w#
1v#
b10111100 u#
b0 t#
0s#
b0 r#
1q#
b0 p#
b0 o#
0n#
0m#
0l#
b0 k#
b0 j#
0i#
0h#
0g#
b0 f#
b0 e#
0d#
b0 c#
1b#
1a#
0`#
0_#
b0 ^#
b0 ]#
b0 \#
0[#
0Z#
b0 Y#
b0 X#
0W#
0V#
0U#
0T#
b0 S#
b111 R#
0Q#
0P#
b0 O#
b0 N#
0M#
b0 L#
b0 K#
0J#
b0 I#
b111 H#
0G#
b0 F#
b0 E#
b0 D#
b0 C#
b1110 B#
b11 A#
b10111100 @#
0?#
0>#
1=#
1<#
b0 ;#
b111 :#
09#
08#
b0 7#
b0 6#
05#
b0 4#
b0 3#
02#
b0 1#
b111 0#
0/#
b0 .#
b0 -#
b0 ,#
b0 +#
b1110 *#
b11 )#
b10111100 (#
0'#
0&#
1%#
1$#
1##
0"#
0!#
b0 ~"
0}"
1|"
b0 {"
b0 z"
b0 y"
b0 x"
1w"
0v"
b0 u"
0t"
b11 s"
0r"
0q"
b0 p"
1o"
b0 n"
b0 m"
0l"
0k"
b0 j"
0i"
b11 h"
b0 g"
b0 f"
b0 e"
1d"
0c"
b0 b"
0a"
b11 `"
0_"
0^"
b0 ]"
1\"
b0 ["
b0 Z"
0Y"
0X"
b0 W"
0V"
b11 U"
b0 T"
b0 S"
b0 R"
1Q"
0P"
b0 O"
b0 N"
b0 M"
b0 L"
b0 K"
b0 J"
b0 I"
0H"
0G"
0F"
0E"
0D"
b11 C"
b111 B"
b1111 A"
b0 @"
b0 ?"
b0 >"
1="
1<"
1;"
b11 :"
b111 9"
b1111 8"
07"
06"
05"
14"
03"
b0 2"
b0 1"
b0 0"
b0 /"
0."
0-"
0,"
0+"
0*"
0)"
b0 ("
b0 '"
b0 &"
b0 %"
b0 $"
b0 #"
b10111100 ""
b0 !"
b0 ~
b10111100 }
b0 |
b0 {
b0 z
b0 y
0x
b0 w
b0 v
b0 u
b0 t
0s
0r
b0 q
b0 p
0o
0n
0m
0l
b0 k
b111 j
0i
b0 h
b0 g
b0 f
b111 e
0d
b0 c
b0 b
1a
b0 `
b0 _
b0 ^
0]
b0 \
0[
b11 Z
b0 Y
b0 X
0W
b0 V
0U
b11 T
b0 S
b0 R
b0 Q
b0 P
b0 O
b0 N
b0 M
b0 L
0K
0J
0I
0H
0G
b11 F
b111 E
b1111 D
b0 C
b0 B
b0 A
0@
0?
0>
0=
0<
0;
b0 :
b0 9
b0 8
07
06
05
04
03
z2
z1
x0
z/
z.
x-
z,
z+
x*
z)
z(
z'
z&
x%
z$
z#
z"
z!
$end
#1000
b10000000 O#
b10000000 7#
1V"
b0 U"
1i"
b0 h"
1!#
0|"
1-"
1."
1?
1@
0a
1U
b0 T
1[
b0 Z
1a"
b0 `"
1t"
b0 s"
0##
02$
0($
0{#
0q#
0a#
0=#
0%#
0w"
0d"
0Q"
04"
b1 >"
b1 ?"
b1 @"
b0 8"
b0 9"
b0 :"
17"
16"
15"
b1 6#
b0 0#
b1 N#
b0 H#
b10 w#
0v#
1s#
b1 t#
1`#
1_#
b10 #$
0"$
1}#
b1 ~#
16
b1 |
1s
b1 !"
1r
1<
b0 D
1>
b0 E
1=
b0 F
b0 e
b0 j
b0 A"
b0 B"
b0 C"
1*"
1+"
1,"
b0 :#
b0 R#
1[#
b1 y#
1Z#
b1 %$
17
#2000
07
#3000
0-"
0."
0?
0@
b110 B#
b110 *#
b111100 @#
b111100 (#
b11 #$
1"$
0}#
b10 ~#
0`#
0_#
b11 w#
1v#
0s#
b10 t#
b10000000 O#
b10 N#
b10000000 I#
b1 H#
b10000000 7#
b10 6#
b10000000 1#
b1 0#
b10 >"
b10 ?"
b10 @"
b1 8"
b1 9"
b1 :"
1l#
b11111111111111111111111111111111 j#
1i#
0Z#
b10 %$
0[#
b10 y#
b10000000 S#
b1 R#
b10000000 ;#
b1 :#
b1 A"
b1 B"
b1 C"
b10000000 k
b1 j
b10000000 f
b1 e
b1 D
b1 E
b1 F
b10 !"
0r
b10 |
0s
b11111111111111111111111111111111 :
b11111111111111111111111111111111 A
b11111111111111111111111111111111 v
b11111111111111111111111111111111 w
b11111111111111111111111111111111 /"
b11111111111111111111111111111111 ^#
b11111111111111111111111111111111 c#
b11111111111111111111111111111111 =$
15
17
#4000
07
#5000
b10100000 O#
b10100000 7#
1-"
1."
1?
1@
b11 >"
b11 ?"
b11 @"
b10 8"
b10 9"
b10 :"
b11 6#
b10 0#
b11 N#
b10 H#
b100 w#
1s#
b11 t#
1`#
1_#
b100 #$
1}#
b11 ~#
b11 |
1s
b11 !"
1r
b10 D
b10 E
b10 F
b10 e
b10 j
b10 A"
b10 B"
b10 C"
b10 :#
b10 R#
1[#
b11 y#
1Z#
b11 %$
17
#6000
07
#7000
b11100 @#
b11100 (#
b101 #$
b100 ~#
b101 w#
b100 t#
b10110000 O#
b100 N#
b10100000 I#
b11 H#
b10110000 7#
b100 6#
b10100000 1#
b11 0#
b100 >"
b100 ?"
0<"
b0 @"
b11 8"
b11 9"
b11 :"
b100 %$
b100 y#
b10100000 S#
b11 R#
b10100000 ;#
b11 :#
b11 A"
b11 B"
b11 C"
b10100000 k
b11 j
b10100000 f
b11 e
b11 D
b11 E
b11 F
b100 !"
b100 |
17
#8000
07
#9000
b1 )#
b1 A#
b10 *#
b10 B#
b1100 (#
b1100 @#
b101 >"
b101 ?"
b1 @"
b100 8"
b100 9"
b0 :"
06"
b10111000 7#
b101 6#
b10110000 1#
b100 0#
b10111000 O#
b101 N#
b10110000 I#
b100 H#
b110 w#
b101 t#
b110 #$
b101 ~#
b101 |
b101 !"
b100 D
b100 E
0=
b0 F
b10110000 f
b100 e
b10110000 k
b100 j
b100 A"
b100 B"
b0 C"
0+"
b10110000 ;#
b100 :#
b10110000 S#
b100 R#
b101 y#
b101 %$
17
#10000
07
#11000
b100 @#
b100 (#
b111 #$
0"$
b110 ~#
b111 w#
0v#
b110 t#
b10111100 O#
b110 N#
b10111000 I#
b101 H#
b10111100 7#
b110 6#
b10111000 1#
b101 0#
b110 >"
b110 ?"
b10 @"
b101 8"
b101 9"
b1 :"
b110 %$
b110 y#
b10111000 S#
b101 R#
b10111000 ;#
b101 :#
b101 A"
b101 B"
b1 C"
b10111000 k
b101 j
b10111000 f
b101 e
b101 D
b101 E
b1 F
b110 !"
b110 |
17
#12000
07
#13000
0-"
0."
0?
0@
1&#
1'#
1>#
1?#
0$#
0<#
b0 )#
b0 A#
b0 *#
b0 B#
b0 (#
b0 @#
b111 >"
b111 ?"
b11 @"
b110 8"
b110 9"
b10 :"
b10111100 7#
b111 6#
b10111100 1#
b110 0#
b10111100 O#
b111 N#
b10111100 I#
b110 H#
b0 w#
0s#
b111 t#
0`#
0_#
b0 #$
0}#
b111 ~#
b111 |
0s
b111 !"
0r
b110 D
b110 E
b10 F
b10111100 f
b110 e
b10111100 k
b110 j
b110 A"
b110 B"
b10 C"
b10111100 ;#
b110 :#
b10111100 S#
b110 R#
0[#
b111 y#
0Z#
b111 %$
17
#14000
07
#15000
b1 #$
1"$
b0 ~#
b1 w#
1v#
b0 t#
b0 N#
b111 H#
b0 6#
b111 0#
b1000 >"
0;"
b0 ?"
1<"
b0 @"
b111 8"
b111 9"
b11 :"
b0 %$
b0 y#
b111 R#
b111 :#
b111 A"
b111 B"
b11 C"
b111 j
b111 e
b111 D
b111 E
b11 F
b0 !"
b0 |
17
#16000
07
#17000
1-"
1."
1?
1@
b1001 >"
b1 ?"
b1 @"
b1000 8"
b0 9"
b0 :"
16"
05"
b1 3#
b10000000 7#
b1 6#
b0 0#
b1 K#
b10000000 O#
b1 N#
b0 H#
b10 w#
0v#
1s#
b1 t#
1`#
1_#
b10 #$
0"$
1}#
b1 ~#
b1 |
1s
b1 !"
1r
b1000 D
0>
b0 E
1=
b0 F
b0 e
b0 j
b1000 A"
b0 B"
b0 C"
1+"
0,"
b0 :#
b0 R#
1[#
b1 y#
1Z#
b1 %$
17
#18000
07
#19000
0-"
0."
0?
0@
0>#
0?#
0&#
0'#
1<#
1$#
b11 A#
b11 )#
b110 B#
b110 *#
b111100 @#
b111100 (#
b11 #$
1"$
0}#
b10 ~#
0`#
0_#
b11 w#
1v#
0s#
b10 t#
b10000000 O#
b10 N#
b1 E#
b10000000 I#
b1 H#
b10000000 7#
b10 6#
b1 -#
b10000000 1#
b1 0#
b1010 >"
b10 ?"
b10 @"
b1001 8"
b1 9"
b1 :"
0Z#
b10 %$
0[#
b10 y#
b1 C#
b10000000 S#
b1 R#
b1 +#
b10000000 ;#
b1 :#
b1001 A"
b1 B"
b1 C"
b10000000 k
b1 j
b1 g
b10000000 f
b1 e
b1 b
b1001 D
b1 E
b1 F
b10 !"
0r
b10 |
0s
17
#20000
07
#21000
b10100000 O#
b10100000 7#
1-"
1."
1?
1@
b1011 >"
b11 ?"
b11 @"
b1010 8"
b10 9"
b10 :"
b11 6#
b10 0#
b11 N#
b10 H#
b100 w#
1s#
b11 t#
1`#
1_#
b100 #$
1}#
b11 ~#
b11 |
1s
b11 !"
1r
b1010 D
b10 E
b10 F
b10 e
b10 j
b1010 A"
b10 B"
b10 C"
b10 :#
b10 R#
1[#
b11 y#
1Z#
b11 %$
17
#22000
07
#23000
b11100 @#
b11100 (#
b101 #$
b100 ~#
b101 w#
b100 t#
b10110000 O#
b100 N#
b10100000 I#
b11 H#
b10110000 7#
b100 6#
b10100000 1#
b11 0#
b1100 >"
b100 ?"
0<"
b0 @"
b1011 8"
b11 9"
b11 :"
b100 %$
b100 y#
b10100000 S#
b11 R#
b10100000 ;#
b11 :#
b1011 A"
b11 B"
b11 C"
b10100000 k
b11 j
b10100000 f
b11 e
b1011 D
b11 E
b11 F
b100 !"
b100 |
17
#24000
07
#25000
b1 )#
b1 A#
b10 *#
b10 B#
b1100 (#
b1100 @#
b1101 >"
b101 ?"
b1 @"
b1100 8"
b100 9"
b0 :"
06"
b10111000 7#
b101 6#
b10110000 1#
b100 0#
b10111000 O#
b101 N#
b10110000 I#
b100 H#
b110 w#
b101 t#
b110 #$
b101 ~#
b101 |
b101 !"
b1100 D
b100 E
0=
b0 F
b10110000 f
b100 e
b10110000 k
b100 j
b1100 A"
b100 B"
b0 C"
0+"
b10110000 ;#
b100 :#
b10110000 S#
b100 R#
b101 y#
b101 %$
17
#26000
07
#27000
b100 @#
b100 (#
b111 #$
0"$
b110 ~#
b111 w#
0v#
b110 t#
b10111100 O#
b110 N#
b10111000 I#
b101 H#
b10111100 7#
b110 6#
b10111000 1#
b101 0#
b1110 >"
b110 ?"
b10 @"
b1101 8"
b101 9"
b1 :"
b110 %$
b110 y#
b10111000 S#
b101 R#
b10111000 ;#
b101 :#
b1101 A"
b101 B"
b1 C"
b10111000 k
b101 j
b10111000 f
b101 e
b1101 D
b101 E
b1 F
b110 !"
b110 |
17
#28000
07
